FBgn0000022
FBgn0000032
FBgn0000036
FBgn0000037
FBgn0000038
FBgn0000039
FBgn0000084
FBgn0000092
FBgn0000094
FBgn0000120
FBgn0000121
FBgn0000152
FBgn0000158
FBgn0000206
FBgn0000216
FBgn0000227
FBgn0000241
FBgn0000244
FBgn0000246
FBgn0000247
FBgn0000259
FBgn0000276
FBgn0000277
FBgn0000278
FBgn0000286
FBgn0000318
FBgn0000337
FBgn0000355
FBgn0000356
FBgn0000358
FBgn0000359
FBgn0000360
FBgn0000392
FBgn0000405
FBgn0000406
FBgn0000416
FBgn0000427
FBgn0000442
FBgn0000454
FBgn0000455
FBgn0000473
FBgn0000477
FBgn0000489
FBgn0000500
FBgn0000527
FBgn0000529
FBgn0000535
FBgn0000551
FBgn0000552
FBgn0000562
FBgn0000565
FBgn0000594
FBgn0000618
FBgn0000633
FBgn0000636
FBgn0000639
FBgn0000644
FBgn0000658
FBgn0000964
FBgn0001084
FBgn0001085
FBgn0001089
FBgn0001091
FBgn0001092
FBgn0001098
FBgn0001104
FBgn0001114
FBgn0001125
FBgn0001134
FBgn0001149
FBgn0001174
FBgn0001187
FBgn0001202
FBgn0001206
FBgn0001217
FBgn0001223
FBgn0001224
FBgn0001225
FBgn0001226
FBgn0001228
FBgn0001229
FBgn0001247
FBgn0001254
FBgn0001255
FBgn0001256
FBgn0001257
FBgn0001258
FBgn0001263
FBgn0001269
FBgn0001280
FBgn0001281
FBgn0001296
FBgn0001313
FBgn0001316
FBgn0001323
FBgn0002036
FBgn0002531
FBgn0002533
FBgn0002534
FBgn0002535
FBgn0002562
FBgn0002563
FBgn0002564
FBgn0002567
FBgn0002569
FBgn0002570
FBgn0002571
FBgn0002576
FBgn0002577
FBgn0002578
FBgn0002632
FBgn0002633
FBgn0002641
FBgn0002645
FBgn0002673
FBgn0002707
FBgn0002709
FBgn0002715
FBgn0002719
FBgn0002773
FBgn0002789
FBgn0002842
FBgn0002855
FBgn0002856
FBgn0002863
FBgn0002865
FBgn0002868
FBgn0002872
FBgn0002887
FBgn0002891
FBgn0002899
FBgn0002901
FBgn0002905
FBgn0002909
FBgn0002931
FBgn0002936
FBgn0002937
FBgn0002938
FBgn0002940
FBgn0002989
FBgn0003008
FBgn0003065
FBgn0003067
FBgn0003068
FBgn0003082
FBgn0003086
FBgn0003090
FBgn0003091
FBgn0003134
FBgn0003140
FBgn0003159
FBgn0003175
FBgn0003187
FBgn0003210
FBgn0003218
FBgn0003227
FBgn0003248
FBgn0003249
FBgn0003250
FBgn0003257
FBgn0003274
FBgn0003302
FBgn0003313
FBgn0003358
FBgn0003372
FBgn0003375
FBgn0003377
FBgn0003380
FBgn0003401
FBgn0003410
FBgn0003416
FBgn0003423
FBgn0003429
FBgn0003447
FBgn0003464
FBgn0003479
FBgn0003480
FBgn0003482
FBgn0003510
FBgn0003527
FBgn0003638
FBgn0003656
FBgn0003741
FBgn0003747
FBgn0003861
FBgn0003889
FBgn0003890
FBgn0003943
FBgn0003965
FBgn0003969
FBgn0003979
FBgn0003980
FBgn0003996
FBgn0004034
FBgn0004045
FBgn0004052
FBgn0004055
FBgn0004066
FBgn0004087
FBgn0004108
FBgn0004173
FBgn0004175
FBgn0004181
FBgn0004228
FBgn0004237
FBgn0004359
FBgn0004360
FBgn0004367
FBgn0004368
FBgn0004369
FBgn0004370
FBgn0004372
FBgn0004373
FBgn0004387
FBgn0004390
FBgn0004397
FBgn0004400
FBgn0004401
FBgn0004429
FBgn0004430
FBgn0004431
FBgn0004465
FBgn0004512
FBgn0004513
FBgn0004514
FBgn0004554
FBgn0004573
FBgn0004575
FBgn0004580
FBgn0004581
FBgn0004584
FBgn0004588
FBgn0004590
FBgn0004594
FBgn0004611
FBgn0004619
FBgn0004622
FBgn0004623
FBgn0004629
FBgn0004687
FBgn0004698
FBgn0004779
FBgn0004783
FBgn0004784
FBgn0004797
FBgn0004828
FBgn0004832
FBgn0004839
FBgn0004841
FBgn0004842
FBgn0004852
FBgn0004860
FBgn0004896
FBgn0004897
FBgn0004898
FBgn0004910
FBgn0004919
FBgn0005355
FBgn0005564
FBgn0005614
FBgn0005619
FBgn0005633
FBgn0005649
FBgn0005658
FBgn0005660
FBgn0005664
FBgn0005670
FBgn0005694
FBgn0005695
FBgn0005696
FBgn0005775
FBgn0005778
FBgn0008651
FBgn0010014
FBgn0010038
FBgn0010039
FBgn0010040
FBgn0010041
FBgn0010042
FBgn0010043
FBgn0010044
FBgn0010052
FBgn0010053
FBgn0010226
FBgn0010240
FBgn0010258
FBgn0010263
FBgn0010287
FBgn0010295
FBgn0010315
FBgn0010329
FBgn0010339
FBgn0010342
FBgn0010357
FBgn0010385
FBgn0010387
FBgn0010388
FBgn0010395
FBgn0010399
FBgn0010401
FBgn0010403
FBgn0010406
FBgn0010407
FBgn0010408
FBgn0010414
FBgn0010425
FBgn0010435
FBgn0010497
FBgn0011206
FBgn0011230
FBgn0011244
FBgn0011270
FBgn0011276
FBgn0011277
FBgn0011279
FBgn0011280
FBgn0011281
FBgn0011289
FBgn0011293
FBgn0011296
FBgn0011554
FBgn0011555
FBgn0011556
FBgn0011569
FBgn0011582
FBgn0011584
FBgn0011592
FBgn0011596
FBgn0011603
FBgn0011642
FBgn0011659
FBgn0011660
FBgn0011666
FBgn0011668
FBgn0011669
FBgn0011670
FBgn0011676
FBgn0011694
FBgn0011695
FBgn0011710
FBgn0011740
FBgn0011741
FBgn0011743
FBgn0011746
FBgn0011747
FBgn0011768
FBgn0011769
FBgn0011770
FBgn0011774
FBgn0011829
FBgn0011832
FBgn0011834
FBgn0011837
FBgn0012034
FBgn0012036
FBgn0012042
FBgn0012344
FBgn0013277
FBgn0013300
FBgn0013301
FBgn0013305
FBgn0013307
FBgn0013308
FBgn0013334
FBgn0013435
FBgn0013467
FBgn0013750
FBgn0013755
FBgn0013759
FBgn0013762
FBgn0013767
FBgn0013770
FBgn0013771
FBgn0013772
FBgn0013810
FBgn0013811
FBgn0013812
FBgn0013949
FBgn0013954
FBgn0013972
FBgn0013973
FBgn0013983
FBgn0013995
FBgn0014022
FBgn0014028
FBgn0014031
FBgn0014032
FBgn0014073
FBgn0014075
FBgn0014092
FBgn0014133
FBgn0014141
FBgn0014342
FBgn0014368
FBgn0014380
FBgn0014395
FBgn0014396
FBgn0014417
FBgn0014427
FBgn0014455
FBgn0014466
FBgn0014848
FBgn0014849
FBgn0014850
FBgn0014865
FBgn0014869
FBgn0014906
FBgn0014931
FBgn0015001
FBgn0015010
FBgn0015011
FBgn0015025
FBgn0015032
FBgn0015033
FBgn0015034
FBgn0015036
FBgn0015038
FBgn0015230
FBgn0015247
FBgn0015269
FBgn0015299
FBgn0015316
FBgn0015321
FBgn0015336
FBgn0015338
FBgn0015351
FBgn0015359
FBgn0015380
FBgn0015519
FBgn0015522
FBgn0015546
FBgn0015553
FBgn0015558
FBgn0015568
FBgn0015569
FBgn0015570
FBgn0015571
FBgn0015572
FBgn0015574
FBgn0015575
FBgn0015577
FBgn0015584
FBgn0015585
FBgn0015586
FBgn0015589
FBgn0015591
FBgn0015622
FBgn0015625
FBgn0015663
FBgn0015714
FBgn0015721
FBgn0015737
FBgn0015772
FBgn0015773
FBgn0015776
FBgn0015781
FBgn0015791
FBgn0015793
FBgn0015794
FBgn0015795
FBgn0015803
FBgn0015808
FBgn0015831
FBgn0015872
FBgn0016031
FBgn0016032
FBgn0016038
FBgn0016054
FBgn0016061
FBgn0016122
FBgn0016123
FBgn0016126
FBgn0016641
FBgn0016672
FBgn0016675
FBgn0016684
FBgn0016685
FBgn0016701
FBgn0016754
FBgn0016762
FBgn0016926
FBgn0016930
FBgn0017429
FBgn0017456
FBgn0017482
FBgn0017558
FBgn0017566
FBgn0017577
FBgn0017581
FBgn0019662
FBgn0019828
FBgn0019929
FBgn0019952
FBgn0019972
FBgn0019982
FBgn0019985
FBgn0020248
FBgn0020257
FBgn0020277
FBgn0020280
FBgn0020294
FBgn0020304
FBgn0020371
FBgn0020372
FBgn0020376
FBgn0020377
FBgn0020381
FBgn0020385
FBgn0020391
FBgn0020399
FBgn0020407
FBgn0020429
FBgn0020440
FBgn0020503
FBgn0020545
FBgn0020620
FBgn0020626
FBgn0020633
FBgn0020640
FBgn0020645
FBgn0020660
FBgn0020765
FBgn0020767
FBgn0020880
FBgn0020906
FBgn0020907
FBgn0020912
FBgn0020930
FBgn0021738
FBgn0021764
FBgn0021768
FBgn0022160
FBgn0022343
FBgn0022344
FBgn0022349
FBgn0022359
FBgn0022382
FBgn0022699
FBgn0022709
FBgn0022710
FBgn0022768
FBgn0022770
FBgn0022935
FBgn0022936
FBgn0022984
FBgn0022985
FBgn0022987
FBgn0023023
FBgn0023076
FBgn0023090
FBgn0023094
FBgn0023096
FBgn0023407
FBgn0023415
FBgn0023416
FBgn0023477
FBgn0023479
FBgn0023509
FBgn0023513
FBgn0023516
FBgn0023517
FBgn0023519
FBgn0023523
FBgn0023525
FBgn0023530
FBgn0023531
FBgn0023534
FBgn0023535
FBgn0023536
FBgn0023537
FBgn0023540
FBgn0023541
FBgn0023550
FBgn0024150
FBgn0024177
FBgn0024182
FBgn0024183
FBgn0024184
FBgn0024222
FBgn0024230
FBgn0024232
FBgn0024238
FBgn0024245
FBgn0024249
FBgn0024251
FBgn0024289
FBgn0024291
FBgn0024294
FBgn0024314
FBgn0024326
FBgn0024329
FBgn0024365
FBgn0024366
FBgn0024371
FBgn0024432
FBgn0024689
FBgn0024728
FBgn0024732
FBgn0024734
FBgn0024740
FBgn0024806
FBgn0024814
FBgn0024841
FBgn0024897
FBgn0024909
FBgn0024912
FBgn0024944
FBgn0024945
FBgn0024947
FBgn0024956
FBgn0024957
FBgn0024963
FBgn0024973
FBgn0024975
FBgn0024983
FBgn0024984
FBgn0024985
FBgn0024987
FBgn0024989
FBgn0024991
FBgn0024992
FBgn0024993
FBgn0024995
FBgn0025109
FBgn0025334
FBgn0025355
FBgn0025378
FBgn0025381
FBgn0025382
FBgn0025383
FBgn0025391
FBgn0025394
FBgn0025454
FBgn0025457
FBgn0025469
FBgn0025519
FBgn0025549
FBgn0025573
FBgn0025578
FBgn0025583
FBgn0025595
FBgn0025608
FBgn0025613
FBgn0025616
FBgn0025620
FBgn0025621
FBgn0025624
FBgn0025625
FBgn0025628
FBgn0025629
FBgn0025630
FBgn0025634
FBgn0025635
FBgn0025639
FBgn0025642
FBgn0025643
FBgn0025676
FBgn0025678
FBgn0025679
FBgn0025680
FBgn0025692
FBgn0025693
FBgn0025697
FBgn0025702
FBgn0025709
FBgn0025724
FBgn0025739
FBgn0025740
FBgn0025776
FBgn0025777
FBgn0025808
FBgn0025809
FBgn0025814
FBgn0025820
FBgn0025821
FBgn0025827
FBgn0025833
FBgn0025835
FBgn0025836
FBgn0025838
FBgn0025865
FBgn0025866
FBgn0025878
FBgn0025885
FBgn0025936
FBgn0026015
FBgn0026056
FBgn0026058
FBgn0026061
FBgn0026063
FBgn0026064
FBgn0026077
FBgn0026079
FBgn0026083
FBgn0026084
FBgn0026085
FBgn0026090
FBgn0026141
FBgn0026147
FBgn0026148
FBgn0026149
FBgn0026176
FBgn0026189
FBgn0026190
FBgn0026197
FBgn0026263
FBgn0026309
FBgn0026313
FBgn0026324
FBgn0026326
FBgn0026361
FBgn0026372
FBgn0026375
FBgn0026385
FBgn0026386
FBgn0026388
FBgn0026390
FBgn0026391
FBgn0026392
FBgn0026393
FBgn0026394
FBgn0026398
FBgn0026403
FBgn0026417
FBgn0026428
FBgn0026431
FBgn0026433
FBgn0026438
FBgn0026441
FBgn0026565
FBgn0026566
FBgn0026570
FBgn0026577
FBgn0026592
FBgn0026593
FBgn0026619
FBgn0026630
FBgn0026718
FBgn0026721
FBgn0026737
FBgn0026738
FBgn0026749
FBgn0026751
FBgn0026754
FBgn0026755
FBgn0026756
FBgn0026760
FBgn0026761
FBgn0026777
FBgn0026778
FBgn0026869
FBgn0026872
FBgn0027052
FBgn0027070
FBgn0027073
FBgn0027074
FBgn0027101
FBgn0027106
FBgn0027107
FBgn0027109
FBgn0027111
FBgn0027287
FBgn0027342
FBgn0027343
FBgn0027348
FBgn0027356
FBgn0027359
FBgn0027375
FBgn0027376
FBgn0027453
FBgn0027490
FBgn0027496
FBgn0027498
FBgn0027505
FBgn0027506
FBgn0027508
FBgn0027509
FBgn0027512
FBgn0027513
FBgn0027515
FBgn0027518
FBgn0027521
FBgn0027524
FBgn0027526
FBgn0027528
FBgn0027529
FBgn0027532
FBgn0027538
FBgn0027544
FBgn0027546
FBgn0027547
FBgn0027550
FBgn0027552
FBgn0027554
FBgn0027556
FBgn0027558
FBgn0027562
FBgn0027563
FBgn0027565
FBgn0027569
FBgn0027570
FBgn0027572
FBgn0027574
FBgn0027575
FBgn0027578
FBgn0027579
FBgn0027581
FBgn0027582
FBgn0027583
FBgn0027586
FBgn0027590
FBgn0027594
FBgn0027596
FBgn0027597
FBgn0027599
FBgn0027600
FBgn0027601
FBgn0027602
FBgn0027608
FBgn0027610
FBgn0027611
FBgn0027616
FBgn0027654
FBgn0027655
FBgn0027780
FBgn0027786
FBgn0027790
FBgn0027791
FBgn0027793
FBgn0027836
FBgn0027843
FBgn0027864
FBgn0027872
FBgn0027903
FBgn0027929
FBgn0027949
FBgn0027950
FBgn0028370
FBgn0028371
FBgn0028372
FBgn0028379
FBgn0028380
FBgn0028381
FBgn0028394
FBgn0028399
FBgn0028400
FBgn0028406
FBgn0028408
FBgn0028410
FBgn0028412
FBgn0028418
FBgn0028424
FBgn0028429
FBgn0028430
FBgn0028434
FBgn0028436
FBgn0028467
FBgn0028476
FBgn0028479
FBgn0028481
FBgn0028482
FBgn0028487
FBgn0028490
FBgn0028491
FBgn0028496
FBgn0028497
FBgn0028499
FBgn0028507
FBgn0028509
FBgn0028513
FBgn0028514
FBgn0028516
FBgn0028520
FBgn0028523
FBgn0028525
FBgn0028526
FBgn0028527
FBgn0028530
FBgn0028531
FBgn0028532
FBgn0028533
FBgn0028534
FBgn0028542
FBgn0028543
FBgn0028544
FBgn0028546
FBgn0028552
FBgn0028561
FBgn0028562
FBgn0028563
FBgn0028569
FBgn0028570
FBgn0028579
FBgn0028581
FBgn0028645
FBgn0028647
FBgn0028667
FBgn0028668
FBgn0028669
FBgn0028675
FBgn0028699
FBgn0028703
FBgn0028704
FBgn0028707
FBgn0028708
FBgn0028717
FBgn0028734
FBgn0028740
FBgn0028746
FBgn0028789
FBgn0028833
FBgn0028838
FBgn0028844
FBgn0028847
FBgn0028848
FBgn0028852
FBgn0028853
FBgn0028855
FBgn0028856
FBgn0028857
FBgn0028858
FBgn0028862
FBgn0028866
FBgn0028870
FBgn0028871
FBgn0028872
FBgn0028878
FBgn0028879
FBgn0028880
FBgn0028884
FBgn0028886
FBgn0028887
FBgn0028893
FBgn0028894
FBgn0028895
FBgn0028896
FBgn0028897
FBgn0028899
FBgn0028902
FBgn0028913
FBgn0028916
FBgn0028919
FBgn0028920
FBgn0028926
FBgn0028931
FBgn0028932
FBgn0028935
FBgn0028936
FBgn0028938
FBgn0028939
FBgn0028941
FBgn0028942
FBgn0028943
FBgn0028944
FBgn0028945
FBgn0028947
FBgn0028949
FBgn0028952
FBgn0028953
FBgn0028955
FBgn0028956
FBgn0028963
FBgn0028965
FBgn0028980
FBgn0028984
FBgn0028988
FBgn0029002
FBgn0029003
FBgn0029079
FBgn0029082
FBgn0029092
FBgn0029093
FBgn0029105
FBgn0029114
FBgn0029118
FBgn0029121
FBgn0029131
FBgn0029133
FBgn0029137
FBgn0029147
FBgn0029155
FBgn0029167
FBgn0029170
FBgn0029172
FBgn0029501
FBgn0029502
FBgn0029506
FBgn0029507
FBgn0029514
FBgn0029521
FBgn0029522
FBgn0029529
FBgn0029531
FBgn0029532
FBgn0029535
FBgn0029568
FBgn0029573
FBgn0029580
FBgn0029587
FBgn0029589
FBgn0029590
FBgn0029594
FBgn0029596
FBgn0029606
FBgn0029608
FBgn0029642
FBgn0029645
FBgn0029646
FBgn0029647
FBgn0029648
FBgn0029649
FBgn0029656
FBgn0029657
FBgn0029658
FBgn0029659
FBgn0029660
FBgn0029661
FBgn0029663
FBgn0029664
FBgn0029666
FBgn0029667
FBgn0029669
FBgn0029689
FBgn0029690
FBgn0029693
FBgn0029696
FBgn0029701
FBgn0029703
FBgn0029705
FBgn0029706
FBgn0029707
FBgn0029708
FBgn0029710
FBgn0029711
FBgn0029712
FBgn0029715
FBgn0029716
FBgn0029717
FBgn0029719
FBgn0029720
FBgn0029722
FBgn0029723
FBgn0029724
FBgn0029728
FBgn0029729
FBgn0029730
FBgn0029736
FBgn0029737
FBgn0029740
FBgn0029745
FBgn0029746
FBgn0029747
FBgn0029750
FBgn0029751
FBgn0029752
FBgn0029754
FBgn0029756
FBgn0029761
FBgn0029778
FBgn0029783
FBgn0029789
FBgn0029791
FBgn0029798
FBgn0029801
FBgn0029804
FBgn0029809
FBgn0029810
FBgn0029812
FBgn0029813
FBgn0029814
FBgn0029817
FBgn0029819
FBgn0029820
FBgn0029821
FBgn0029825
FBgn0029826
FBgn0029827
FBgn0029828
FBgn0029831
FBgn0029834
FBgn0029835
FBgn0029836
FBgn0029837
FBgn0029838
FBgn0029839
FBgn0029851
FBgn0029853
FBgn0029856
FBgn0029857
FBgn0029859
FBgn0029860
FBgn0029863
FBgn0029864
FBgn0029874
FBgn0029878
FBgn0029879
FBgn0029880
FBgn0029881
FBgn0029882
FBgn0029890
FBgn0029891
FBgn0029892
FBgn0029893
FBgn0029894
FBgn0029895
FBgn0029896
FBgn0029898
FBgn0029903
FBgn0029906
FBgn0029907
FBgn0029909
FBgn0029915
FBgn0029922
FBgn0029924
FBgn0029930
FBgn0029931
FBgn0029937
FBgn0029940
FBgn0029943
FBgn0029946
FBgn0029948
FBgn0029949
FBgn0029951
FBgn0029952
FBgn0029957
FBgn0029958
FBgn0029959
FBgn0029961
FBgn0029962
FBgn0029963
FBgn0029964
FBgn0029968
FBgn0029969
FBgn0029970
FBgn0029974
FBgn0029976
FBgn0029977
FBgn0029986
FBgn0029987
FBgn0029989
FBgn0029993
FBgn0029994
FBgn0029997
FBgn0030001
FBgn0030004
FBgn0030005
FBgn0030006
FBgn0030009
FBgn0030010
FBgn0030013
FBgn0030014
FBgn0030015
FBgn0030017
FBgn0030026
FBgn0030027
FBgn0030029
FBgn0030033
FBgn0030038
FBgn0030039
FBgn0030040
FBgn0030048
FBgn0030050
FBgn0030051
FBgn0030052
FBgn0030053
FBgn0030055
FBgn0030056
FBgn0030060
FBgn0030065
FBgn0030071
FBgn0030073
FBgn0030074
FBgn0030078
FBgn0030087
FBgn0030096
FBgn0030098
FBgn0030100
FBgn0030101
FBgn0030102
FBgn0030103
FBgn0030105
FBgn0030108
FBgn0030109
FBgn0030114
FBgn0030122
FBgn0030151
FBgn0030156
FBgn0030158
FBgn0030159
FBgn0030160
FBgn0030162
FBgn0030164
FBgn0030167
FBgn0030174
FBgn0030178
FBgn0030183
FBgn0030186
FBgn0030191
FBgn0030200
FBgn0030202
FBgn0030204
FBgn0030206
FBgn0030207
FBgn0030215
FBgn0030217
FBgn0030222
FBgn0030228
FBgn0030230
FBgn0030234
FBgn0030237
FBgn0030239
FBgn0030240
FBgn0030242
FBgn0030243
FBgn0030244
FBgn0030246
FBgn0030247
FBgn0030257
FBgn0030259
FBgn0030262
FBgn0030263
FBgn0030270
FBgn0030271
FBgn0030272
FBgn0030274
FBgn0030278
FBgn0030280
FBgn0030283
FBgn0030290
FBgn0030291
FBgn0030292
FBgn0030293
FBgn0030294
FBgn0030296
FBgn0030297
FBgn0030298
FBgn0030300
FBgn0030301
FBgn0030304
FBgn0030309
FBgn0030310
FBgn0030311
FBgn0030313
FBgn0030316
FBgn0030318
FBgn0030320
FBgn0030329
FBgn0030332
FBgn0030334
FBgn0030342
FBgn0030346
FBgn0030348
FBgn0030349
FBgn0030357
FBgn0030358
FBgn0030360
FBgn0030361
FBgn0030364
FBgn0030365
FBgn0030373
FBgn0030374
FBgn0030375
FBgn0030376
FBgn0030386
FBgn0030389
FBgn0030390
FBgn0030391
FBgn0030394
FBgn0030395
FBgn0030396
FBgn0030398
FBgn0030403
FBgn0030406
FBgn0030408
FBgn0030411
FBgn0030417
FBgn0030418
FBgn0030420
FBgn0030421
FBgn0030425
FBgn0030429
FBgn0030431
FBgn0030437
FBgn0030438
FBgn0030439
FBgn0030441
FBgn0030443
FBgn0030447
FBgn0030449
FBgn0030451
FBgn0030452
FBgn0030456
FBgn0030457
FBgn0030459
FBgn0030462
FBgn0030465
FBgn0030466
FBgn0030467
FBgn0030468
FBgn0030477
FBgn0030478
FBgn0030479
FBgn0030482
FBgn0030483
FBgn0030484
FBgn0030485
FBgn0030492
FBgn0030493
FBgn0030494
FBgn0030495
FBgn0030503
FBgn0030504
FBgn0030506
FBgn0030507
FBgn0030508
FBgn0030509
FBgn0030510
FBgn0030512
FBgn0030514
FBgn0030520
FBgn0030522
FBgn0030524
FBgn0030528
FBgn0030536
FBgn0030537
FBgn0030538
FBgn0030542
FBgn0030543
FBgn0030554
FBgn0030555
FBgn0030559
FBgn0030562
FBgn0030566
FBgn0030571
FBgn0030573
FBgn0030575
FBgn0030576
FBgn0030578
FBgn0030582
FBgn0030586
FBgn0030587
FBgn0030589
FBgn0030590
FBgn0030592
FBgn0030593
FBgn0030594
FBgn0030595
FBgn0030596
FBgn0030597
FBgn0030599
FBgn0030600
FBgn0030613
FBgn0030615
FBgn0030617
FBgn0030620
FBgn0030623
FBgn0030628
FBgn0030629
FBgn0030634
FBgn0030642
FBgn0030643
FBgn0030647
FBgn0030658
FBgn0030660
FBgn0030661
FBgn0030662
FBgn0030664
FBgn0030666
FBgn0030667
FBgn0030668
FBgn0030669
FBgn0030671
FBgn0030672
FBgn0030673
FBgn0030678
FBgn0030679
FBgn0030680
FBgn0030683
FBgn0030684
FBgn0030685
FBgn0030688
FBgn0030691
FBgn0030694
FBgn0030696
FBgn0030701
FBgn0030703
FBgn0030704
FBgn0030707
FBgn0030710
FBgn0030715
FBgn0030716
FBgn0030720
FBgn0030721
FBgn0030722
FBgn0030723
FBgn0030724
FBgn0030731
FBgn0030734
FBgn0030735
FBgn0030743
FBgn0030746
FBgn0030747
FBgn0030748
FBgn0030756
FBgn0030757
FBgn0030761
FBgn0030763
FBgn0030764
FBgn0030769
FBgn0030770
FBgn0030774
FBgn0030775
FBgn0030776
FBgn0030777
FBgn0030778
FBgn0030780
FBgn0030787
FBgn0030790
FBgn0030791
FBgn0030792
FBgn0030794
FBgn0030795
FBgn0030797
FBgn0030798
FBgn0030803
FBgn0030804
FBgn0030807
FBgn0030809
FBgn0030813
FBgn0030814
FBgn0030815
FBgn0030817
FBgn0030823
FBgn0030824
FBgn0030828
FBgn0030829
FBgn0030832
FBgn0030833
FBgn0030834
FBgn0030836
FBgn0030837
FBgn0030838
FBgn0030839
FBgn0030840
FBgn0030844
FBgn0030846
FBgn0030847
FBgn0030850
FBgn0030854
FBgn0030859
FBgn0030863
FBgn0030868
FBgn0030869
FBgn0030870
FBgn0030871
FBgn0030872
FBgn0030873
FBgn0030874
FBgn0030876
FBgn0030880
FBgn0030881
FBgn0030883
FBgn0030884
FBgn0030886
FBgn0030889
FBgn0030890
FBgn0030892
FBgn0030893
FBgn0030894
FBgn0030897
FBgn0030898
FBgn0030899
FBgn0030904
FBgn0030905
FBgn0030912
FBgn0030913
FBgn0030914
FBgn0030915
FBgn0030918
FBgn0030921
FBgn0030926
FBgn0030927
FBgn0030928
FBgn0030929
FBgn0030931
FBgn0030936
FBgn0030937
FBgn0030940
FBgn0030941
FBgn0030943
FBgn0030945
FBgn0030946
FBgn0030947
FBgn0030949
FBgn0030952
FBgn0030954
FBgn0030955
FBgn0030968
FBgn0030973
FBgn0030975
FBgn0030976
FBgn0030979
FBgn0030983
FBgn0030989
FBgn0030990
FBgn0030991
FBgn0030992
FBgn0030993
FBgn0030994
FBgn0030995
FBgn0030997
FBgn0030998
FBgn0030999
FBgn0031001
FBgn0031004
FBgn0031006
FBgn0031008
FBgn0031010
FBgn0031016
FBgn0031018
FBgn0031022
FBgn0031026
FBgn0031031
FBgn0031032
FBgn0031034
FBgn0031042
FBgn0031043
FBgn0031044
FBgn0031045
FBgn0031047
FBgn0031051
FBgn0031052
FBgn0031061
FBgn0031064
FBgn0031065
FBgn0031069
FBgn0031070
FBgn0031077
FBgn0031081
FBgn0031082
FBgn0031085
FBgn0031089
FBgn0031091
FBgn0031092
FBgn0031093
FBgn0031094
FBgn0031098
FBgn0031100
FBgn0031101
FBgn0031103
FBgn0031107
FBgn0031109
FBgn0031110
FBgn0031115
FBgn0031116
FBgn0031117
FBgn0031119
FBgn0031126
FBgn0031128
FBgn0031129
FBgn0031130
FBgn0031132
FBgn0031134
FBgn0031139
FBgn0031141
FBgn0031142
FBgn0031144
FBgn0031146
FBgn0031148
FBgn0031149
FBgn0031150
FBgn0031155
FBgn0031157
FBgn0031159
FBgn0031164
FBgn0031170
FBgn0031171
FBgn0031176
FBgn0031178
FBgn0031181
FBgn0031182
FBgn0031183
FBgn0031184
FBgn0031189
FBgn0031191
FBgn0031194
FBgn0031195
FBgn0031196
FBgn0031197
FBgn0031201
FBgn0031216
FBgn0031219
FBgn0031224
FBgn0031229
FBgn0031233
FBgn0031235
FBgn0031238
FBgn0031239
FBgn0031244
FBgn0031248
FBgn0031249
FBgn0031252
FBgn0031255
FBgn0031257
FBgn0031258
FBgn0031261
FBgn0031263
FBgn0031277
FBgn0031279
FBgn0031281
FBgn0031282
FBgn0031283
FBgn0031284
FBgn0031285
FBgn0031286
FBgn0031287
FBgn0031288
FBgn0031289
FBgn0031292
FBgn0031295
FBgn0031296
FBgn0031299
FBgn0031301
FBgn0031302
FBgn0031305
FBgn0031307
FBgn0031309
FBgn0031310
FBgn0031315
FBgn0031318
FBgn0031319
FBgn0031320
FBgn0031321
FBgn0031322
FBgn0031323
FBgn0031324
FBgn0031327
FBgn0031331
FBgn0031333
FBgn0031335
FBgn0031337
FBgn0031343
FBgn0031345
FBgn0031347
FBgn0031351
FBgn0031356
FBgn0031359
FBgn0031360
FBgn0031364
FBgn0031365
FBgn0031367
FBgn0031372
FBgn0031373
FBgn0031378
FBgn0031379
FBgn0031381
FBgn0031384
FBgn0031388
FBgn0031389
FBgn0031391
FBgn0031393
FBgn0031397
FBgn0031398
FBgn0031401
FBgn0031406
FBgn0031407
FBgn0031409
FBgn0031410
FBgn0031412
FBgn0031413
FBgn0031414
FBgn0031417
FBgn0031418
FBgn0031422
FBgn0031424
FBgn0031428
FBgn0031431
FBgn0031434
FBgn0031435
FBgn0031436
FBgn0031440
FBgn0031441
FBgn0031442
FBgn0031443
FBgn0031444
FBgn0031449
FBgn0031451
FBgn0031453
FBgn0031457
FBgn0031462
FBgn0031463
FBgn0031465
FBgn0031466
FBgn0031467
FBgn0031468
FBgn0031469
FBgn0031470
FBgn0031471
FBgn0031472
FBgn0031473
FBgn0031474
FBgn0031478
FBgn0031483
FBgn0031484
FBgn0031485
FBgn0031489
FBgn0031491
FBgn0031494
FBgn0031496
FBgn0031504
FBgn0031512
FBgn0031513
FBgn0031514
FBgn0031516
FBgn0031517
FBgn0031518
FBgn0031519
FBgn0031522
FBgn0031523
FBgn0031528
FBgn0031529
FBgn0031531
FBgn0031533
FBgn0031534
FBgn0031540
FBgn0031542
FBgn0031544
FBgn0031545
FBgn0031547
FBgn0031548
FBgn0031550
FBgn0031554
FBgn0031558
FBgn0031560
FBgn0031561
FBgn0031563
FBgn0031564
FBgn0031566
FBgn0031568
FBgn0031575
FBgn0031579
FBgn0031580
FBgn0031585
FBgn0031592
FBgn0031597
FBgn0031598
FBgn0031600
FBgn0031602
FBgn0031608
FBgn0031609
FBgn0031610
FBgn0031617
FBgn0031619
FBgn0031620
FBgn0031621
FBgn0031626
FBgn0031628
FBgn0031630
FBgn0031631
FBgn0031632
FBgn0031633
FBgn0031634
FBgn0031636
FBgn0031637
FBgn0031638
FBgn0031643
FBgn0031644
FBgn0031645
FBgn0031649
FBgn0031653
FBgn0031657
FBgn0031659
FBgn0031662
FBgn0031663
FBgn0031664
FBgn0031668
FBgn0031675
FBgn0031677
FBgn0031678
FBgn0031682
FBgn0031683
FBgn0031688
FBgn0031689
FBgn0031690
FBgn0031692
FBgn0031694
FBgn0031697
FBgn0031698
FBgn0031700
FBgn0031701
FBgn0031702
FBgn0031707
FBgn0031708
FBgn0031711
FBgn0031713
FBgn0031715
FBgn0031716
FBgn0031718
FBgn0031719
FBgn0031720
FBgn0031723
FBgn0031729
FBgn0031733
FBgn0031735
FBgn0031738
FBgn0031739
FBgn0031741
FBgn0031746
FBgn0031747
FBgn0031749
FBgn0031751
FBgn0031752
FBgn0031753
FBgn0031756
FBgn0031757
FBgn0031758
FBgn0031760
FBgn0031763
FBgn0031766
FBgn0031769
FBgn0031770
FBgn0031773
FBgn0031774
FBgn0031775
FBgn0031777
FBgn0031779
FBgn0031782
FBgn0031784
FBgn0031785
FBgn0031786
FBgn0031791
FBgn0031792
FBgn0031800
FBgn0031803
FBgn0031805
FBgn0031808
FBgn0031813
FBgn0031814
FBgn0031815
FBgn0031818
FBgn0031820
FBgn0031821
FBgn0031829
FBgn0031832
FBgn0031834
FBgn0031835
FBgn0031836
FBgn0031837
FBgn0031848
FBgn0031854
FBgn0031856
FBgn0031857
FBgn0031860
FBgn0031861
FBgn0031866
FBgn0031872
FBgn0031873
FBgn0031874
FBgn0031875
FBgn0031876
FBgn0031878
FBgn0031881
FBgn0031883
FBgn0031887
FBgn0031894
FBgn0031895
FBgn0031897
FBgn0031900
FBgn0031902
FBgn0031904
FBgn0031905
FBgn0031909
FBgn0031910
FBgn0031913
FBgn0031918
FBgn0031920
FBgn0031925
FBgn0031929
FBgn0031930
FBgn0031935
FBgn0031936
FBgn0031937
FBgn0031939
FBgn0031940
FBgn0031941
FBgn0031945
FBgn0031948
FBgn0031950
FBgn0031952
FBgn0031954
FBgn0031961
FBgn0031969
FBgn0031970
FBgn0031971
FBgn0031972
FBgn0031974
FBgn0031976
FBgn0031985
FBgn0031987
FBgn0031992
FBgn0031995
FBgn0031998
FBgn0031999
FBgn0032000
FBgn0032001
FBgn0032002
FBgn0032003
FBgn0032004
FBgn0032014
FBgn0032016
FBgn0032017
FBgn0032018
FBgn0032021
FBgn0032022
FBgn0032023
FBgn0032024
FBgn0032025
FBgn0032026
FBgn0032029
FBgn0032031
FBgn0032032
FBgn0032036
FBgn0032040
FBgn0032042
FBgn0032047
FBgn0032048
FBgn0032049
FBgn0032052
FBgn0032053
FBgn0032054
FBgn0032055
FBgn0032057
FBgn0032058
FBgn0032061
FBgn0032065
FBgn0032066
FBgn0032067
FBgn0032068
FBgn0032069
FBgn0032074
FBgn0032076
FBgn0032077
FBgn0032079
FBgn0032082
FBgn0032083
FBgn0032085
FBgn0032086
FBgn0032087
FBgn0032088
FBgn0032089
FBgn0032090
FBgn0032094
FBgn0032095
FBgn0032096
FBgn0032100
FBgn0032101
FBgn0032104
FBgn0032109
FBgn0032110
FBgn0032111
FBgn0032116
FBgn0032119
FBgn0032120
FBgn0032122
FBgn0032123
FBgn0032124
FBgn0032126
FBgn0032127
FBgn0032131
FBgn0032132
FBgn0032135
FBgn0032140
FBgn0032143
FBgn0032149
FBgn0032150
FBgn0032151
FBgn0032153
FBgn0032157
FBgn0032160
FBgn0032161
FBgn0032162
FBgn0032163
FBgn0032166
FBgn0032167
FBgn0032169
FBgn0032170
FBgn0032171
FBgn0032172
FBgn0032175
FBgn0032176
FBgn0032178
FBgn0032181
FBgn0032184
FBgn0032187
FBgn0032188
FBgn0032191
FBgn0032192
FBgn0032193
FBgn0032196
FBgn0032202
FBgn0032204
FBgn0032205
FBgn0032208
FBgn0032210
FBgn0032211
FBgn0032213
FBgn0032214
FBgn0032216
FBgn0032218
FBgn0032219
FBgn0032222
FBgn0032225
FBgn0032229
FBgn0032230
FBgn0032233
FBgn0032235
FBgn0032242
FBgn0032243
FBgn0032246
FBgn0032247
FBgn0032248
FBgn0032249
FBgn0032251
FBgn0032256
FBgn0032264
FBgn0032265
FBgn0032266
FBgn0032268
FBgn0032269
FBgn0032271
FBgn0032276
FBgn0032280
FBgn0032281
FBgn0032282
FBgn0032284
FBgn0032287
FBgn0032289
FBgn0032290
FBgn0032294
FBgn0032297
FBgn0032303
FBgn0032304
FBgn0032312
FBgn0032313
FBgn0032314
FBgn0032315
FBgn0032329
FBgn0032331
FBgn0032336
FBgn0032338
FBgn0032339
FBgn0032345
FBgn0032348
FBgn0032350
FBgn0032354
FBgn0032358
FBgn0032360
FBgn0032362
FBgn0032365
FBgn0032368
FBgn0032369
FBgn0032370
FBgn0032371
FBgn0032373
FBgn0032374
FBgn0032375
FBgn0032376
FBgn0032377
FBgn0032378
FBgn0032381
FBgn0032385
FBgn0032387
FBgn0032391
FBgn0032393
FBgn0032395
FBgn0032398
FBgn0032399
FBgn0032400
FBgn0032402
FBgn0032405
FBgn0032406
FBgn0032415
FBgn0032416
FBgn0032419
FBgn0032422
FBgn0032428
FBgn0032429
FBgn0032431
FBgn0032435
FBgn0032436
FBgn0032439
FBgn0032442
FBgn0032445
FBgn0032447
FBgn0032448
FBgn0032449
FBgn0032450
FBgn0032451
FBgn0032452
FBgn0032453
FBgn0032455
FBgn0032456
FBgn0032457
FBgn0032464
FBgn0032467
FBgn0032470
FBgn0032471
FBgn0032472
FBgn0032473
FBgn0032474
FBgn0032476
FBgn0032478
FBgn0032479
FBgn0032480
FBgn0032481
FBgn0032483
FBgn0032484
FBgn0032485
FBgn0032486
FBgn0032488
FBgn0032489
FBgn0032491
FBgn0032492
FBgn0032494
FBgn0032495
FBgn0032505
FBgn0032506
FBgn0032507
FBgn0032509
FBgn0032511
FBgn0032513
FBgn0032516
FBgn0032517
FBgn0032519
FBgn0032520
FBgn0032521
FBgn0032522
FBgn0032523
FBgn0032524
FBgn0032530
FBgn0032533
FBgn0032535
FBgn0032536
FBgn0032549
FBgn0032554
FBgn0032563
FBgn0032577
FBgn0032582
FBgn0032585
FBgn0032586
FBgn0032588
FBgn0032590
FBgn0032597
FBgn0032601
FBgn0032602
FBgn0032612
FBgn0032613
FBgn0032618
FBgn0032624
FBgn0032625
FBgn0032626
FBgn0032629
FBgn0032632
FBgn0032633
FBgn0032635
FBgn0032637
FBgn0032639
FBgn0032640
FBgn0032642
FBgn0032643
FBgn0032644
FBgn0032647
FBgn0032648
FBgn0032649
FBgn0032650
FBgn0032652
FBgn0032654
FBgn0032658
FBgn0032663
FBgn0032665
FBgn0032666
FBgn0032668
FBgn0032669
FBgn0032670
FBgn0032671
FBgn0032677
FBgn0032682
FBgn0032684
FBgn0032688
FBgn0032689
FBgn0032692
FBgn0032694
FBgn0032698
FBgn0032699
FBgn0032700
FBgn0032702
FBgn0032707
FBgn0032709
FBgn0032713
FBgn0032715
FBgn0032717
FBgn0032721
FBgn0032723
FBgn0032726
FBgn0032727
FBgn0032729
FBgn0032730
FBgn0032733
FBgn0032734
FBgn0032741
FBgn0032744
FBgn0032746
FBgn0032749
FBgn0032752
FBgn0032754
FBgn0032755
FBgn0032763
FBgn0032768
FBgn0032769
FBgn0032771
FBgn0032772
FBgn0032775
FBgn0032779
FBgn0032780
FBgn0032782
FBgn0032785
FBgn0032787
FBgn0032788
FBgn0032790
FBgn0032793
FBgn0032796
FBgn0032797
FBgn0032798
FBgn0032800
FBgn0032801
FBgn0032803
FBgn0032805
FBgn0032809
FBgn0032810
FBgn0032814
FBgn0032815
FBgn0032816
FBgn0032817
FBgn0032820
FBgn0032821
FBgn0032824
FBgn0032827
FBgn0032835
FBgn0032836
FBgn0032843
FBgn0032845
FBgn0032846
FBgn0032847
FBgn0032848
FBgn0032850
FBgn0032851
FBgn0032856
FBgn0032857
FBgn0032858
FBgn0032860
FBgn0032864
FBgn0032867
FBgn0032871
FBgn0032873
FBgn0032877
FBgn0032878
FBgn0032879
FBgn0032882
FBgn0032884
FBgn0032886
FBgn0032889
FBgn0032891
FBgn0032894
FBgn0032896
FBgn0032897
FBgn0032899
FBgn0032900
FBgn0032907
FBgn0032908
FBgn0032910
FBgn0032911
FBgn0032913
FBgn0032916
FBgn0032923
FBgn0032934
FBgn0032943
FBgn0032945
FBgn0032949
FBgn0032955
FBgn0032957
FBgn0032961
FBgn0032964
FBgn0032966
FBgn0032967
FBgn0032968
FBgn0032969
FBgn0032971
FBgn0032973
FBgn0032974
FBgn0032981
FBgn0033005
FBgn0033010
FBgn0033017
FBgn0033019
FBgn0033020
FBgn0033021
FBgn0033027
FBgn0033031
FBgn0033041
FBgn0033042
FBgn0033043
FBgn0033047
FBgn0033051
FBgn0033054
FBgn0033056
FBgn0033058
FBgn0033061
FBgn0033067
FBgn0033069
FBgn0033072
FBgn0033076
FBgn0033079
FBgn0033085
FBgn0033086
FBgn0033088
FBgn0033089
FBgn0033090
FBgn0033093
FBgn0033095
FBgn0033101
FBgn0033104
FBgn0033108
FBgn0033112
FBgn0033113
FBgn0033115
FBgn0033121
FBgn0033122
FBgn0033124
FBgn0033127
FBgn0033130
FBgn0033132
FBgn0033133
FBgn0033134
FBgn0033135
FBgn0033136
FBgn0033137
FBgn0033138
FBgn0033139
FBgn0033140
FBgn0033141
FBgn0033149
FBgn0033154
FBgn0033155
FBgn0033158
FBgn0033164
FBgn0033167
FBgn0033168
FBgn0033170
FBgn0033174
FBgn0033177
FBgn0033178
FBgn0033184
FBgn0033186
FBgn0033187
FBgn0033188
FBgn0033190
FBgn0033191
FBgn0033192
FBgn0033195
FBgn0033196
FBgn0033202
FBgn0033204
FBgn0033205
FBgn0033208
FBgn0033209
FBgn0033212
FBgn0033215
FBgn0033216
FBgn0033221
FBgn0033222
FBgn0033224
FBgn0033225
FBgn0033226
FBgn0033229
FBgn0033232
FBgn0033233
FBgn0033234
FBgn0033236
FBgn0033238
FBgn0033240
FBgn0033241
FBgn0033243
FBgn0033244
FBgn0033248
FBgn0033249
FBgn0033250
FBgn0033258
FBgn0033259
FBgn0033265
FBgn0033266
FBgn0033268
FBgn0033273
FBgn0033275
FBgn0033277
FBgn0033278
FBgn0033279
FBgn0033280
FBgn0033285
FBgn0033287
FBgn0033289
FBgn0033294
FBgn0033296
FBgn0033297
FBgn0033301
FBgn0033304
FBgn0033307
FBgn0033308
FBgn0033317
FBgn0033320
FBgn0033321
FBgn0033322
FBgn0033323
FBgn0033324
FBgn0033326
FBgn0033327
FBgn0033330
FBgn0033337
FBgn0033339
FBgn0033340
FBgn0033344
FBgn0033347
FBgn0033348
FBgn0033350
FBgn0033352
FBgn0033354
FBgn0033355
FBgn0033356
FBgn0033357
FBgn0033358
FBgn0033364
FBgn0033366
FBgn0033367
FBgn0033372
FBgn0033373
FBgn0033375
FBgn0033377
FBgn0033380
FBgn0033381
FBgn0033382
FBgn0033387
FBgn0033388
FBgn0033389
FBgn0033391
FBgn0033392
FBgn0033395
FBgn0033401
FBgn0033405
FBgn0033408
FBgn0033412
FBgn0033421
FBgn0033422
FBgn0033423
FBgn0033429
FBgn0033431
FBgn0033434
FBgn0033437
FBgn0033439
FBgn0033440
FBgn0033442
FBgn0033443
FBgn0033446
FBgn0033447
FBgn0033448
FBgn0033449
FBgn0033451
FBgn0033457
FBgn0033459
FBgn0033460
FBgn0033461
FBgn0033463
FBgn0033464
FBgn0033468
FBgn0033471
FBgn0033473
FBgn0033475
FBgn0033476
FBgn0033479
FBgn0033481
FBgn0033483
FBgn0033485
FBgn0033486
FBgn0033490
FBgn0033499
FBgn0033500
FBgn0033501
FBgn0033502
FBgn0033504
FBgn0033507
FBgn0033508
FBgn0033512
FBgn0033515
FBgn0033516
FBgn0033519
FBgn0033524
FBgn0033528
FBgn0033529
FBgn0033541
FBgn0033542
FBgn0033547
FBgn0033549
FBgn0033550
FBgn0033551
FBgn0033554
FBgn0033558
FBgn0033564
FBgn0033569
FBgn0033570
FBgn0033572
FBgn0033573
FBgn0033574
FBgn0033578
FBgn0033580
FBgn0033581
FBgn0033582
FBgn0033584
FBgn0033587
FBgn0033588
FBgn0033589
FBgn0033591
FBgn0033592
FBgn0033593
FBgn0033594
FBgn0033597
FBgn0033598
FBgn0033600
FBgn0033601
FBgn0033610
FBgn0033615
FBgn0033616
FBgn0033623
FBgn0033624
FBgn0033627
FBgn0033628
FBgn0033635
FBgn0033638
FBgn0033639
FBgn0033640
FBgn0033645
FBgn0033648
FBgn0033650
FBgn0033651
FBgn0033653
FBgn0033659
FBgn0033663
FBgn0033665
FBgn0033667
FBgn0033673
FBgn0033677
FBgn0033680
FBgn0033683
FBgn0033685
FBgn0033686
FBgn0033687
FBgn0033690
FBgn0033692
FBgn0033696
FBgn0033697
FBgn0033701
FBgn0033702
FBgn0033703
FBgn0033710
FBgn0033712
FBgn0033713
FBgn0033715
FBgn0033716
FBgn0033717
FBgn0033720
FBgn0033721
FBgn0033723
FBgn0033725
FBgn0033726
FBgn0033727
FBgn0033729
FBgn0033730
FBgn0033732
FBgn0033733
FBgn0033734
FBgn0033735
FBgn0033736
FBgn0033737
FBgn0033739
FBgn0033740
FBgn0033742
FBgn0033744
FBgn0033748
FBgn0033749
FBgn0033750
FBgn0033751
FBgn0033752
FBgn0033754
FBgn0033756
FBgn0033757
FBgn0033760
FBgn0033761
FBgn0033762
FBgn0033767
FBgn0033770
FBgn0033773
FBgn0033774
FBgn0033775
FBgn0033777
FBgn0033778
FBgn0033781
FBgn0033783
FBgn0033784
FBgn0033785
FBgn0033788
FBgn0033789
FBgn0033791
FBgn0033792
FBgn0033794
FBgn0033799
FBgn0033802
FBgn0033806
FBgn0033807
FBgn0033810
FBgn0033812
FBgn0033814
FBgn0033816
FBgn0033818
FBgn0033819
FBgn0033820
FBgn0033826
FBgn0033827
FBgn0033828
FBgn0033830
FBgn0033834
FBgn0033844
FBgn0033850
FBgn0033853
FBgn0033856
FBgn0033861
FBgn0033862
FBgn0033863
FBgn0033864
FBgn0033865
FBgn0033866
FBgn0033867
FBgn0033869
FBgn0033871
FBgn0033872
FBgn0033873
FBgn0033874
FBgn0033875
FBgn0033876
FBgn0033879
FBgn0033880
FBgn0033884
FBgn0033886
FBgn0033887
FBgn0033888
FBgn0033889
FBgn0033891
FBgn0033899
FBgn0033900
FBgn0033903
FBgn0033904
FBgn0033905
FBgn0033906
FBgn0033913
FBgn0033916
FBgn0033917
FBgn0033918
FBgn0033921
FBgn0033926
FBgn0033933
FBgn0033934
FBgn0033935
FBgn0033942
FBgn0033943
FBgn0033945
FBgn0033952
FBgn0033953
FBgn0033954
FBgn0033955
FBgn0033958
FBgn0033960
FBgn0033963
FBgn0033969
FBgn0033970
FBgn0033973
FBgn0033978
FBgn0033979
FBgn0033980
FBgn0033981
FBgn0033982
FBgn0033983
FBgn0033984
FBgn0033985
FBgn0033988
FBgn0033989
FBgn0033990
FBgn0033993
FBgn0033996
FBgn0033999
FBgn0034000
FBgn0034002
FBgn0034005
FBgn0034007
FBgn0034008
FBgn0034010
FBgn0034021
FBgn0034022
FBgn0034023
FBgn0034027
FBgn0034030
FBgn0034031
FBgn0034032
FBgn0034035
FBgn0034046
FBgn0034047
FBgn0034050
FBgn0034052
FBgn0034053
FBgn0034054
FBgn0034058
FBgn0034063
FBgn0034066
FBgn0034067
FBgn0034068
FBgn0034069
FBgn0034070
FBgn0034071
FBgn0034075
FBgn0034076
FBgn0034082
FBgn0034083
FBgn0034094
FBgn0034095
FBgn0034097
FBgn0034099
FBgn0034104
FBgn0034105
FBgn0034106
FBgn0034113
FBgn0034114
FBgn0034117
FBgn0034121
FBgn0034122
FBgn0034126
FBgn0034128
FBgn0034129
FBgn0034131
FBgn0034132
FBgn0034135
FBgn0034136
FBgn0034137
FBgn0034139
FBgn0034140
FBgn0034141
FBgn0034144
FBgn0034151
FBgn0034152
FBgn0034153
FBgn0034154
FBgn0034156
FBgn0034160
FBgn0034162
FBgn0034166
FBgn0034168
FBgn0034172
FBgn0034173
FBgn0034175
FBgn0034176
FBgn0034179
FBgn0034182
FBgn0034183
FBgn0034184
FBgn0034186
FBgn0034187
FBgn0034191
FBgn0034194
FBgn0034195
FBgn0034196
FBgn0034199
FBgn0034202
FBgn0034206
FBgn0034210
FBgn0034214
FBgn0034217
FBgn0034218
FBgn0034221
FBgn0034223
FBgn0034225
FBgn0034229
FBgn0034242
FBgn0034245
FBgn0034246
FBgn0034247
FBgn0034248
FBgn0034249
FBgn0034251
FBgn0034253
FBgn0034255
FBgn0034261
FBgn0034262
FBgn0034265
FBgn0034266
FBgn0034267
FBgn0034271
FBgn0034274
FBgn0034275
FBgn0034276
FBgn0034277
FBgn0034278
FBgn0034279
FBgn0034281
FBgn0034282
FBgn0034283
FBgn0034284
FBgn0034286
FBgn0034288
FBgn0034289
FBgn0034291
FBgn0034292
FBgn0034294
FBgn0034296
FBgn0034299
FBgn0034301
FBgn0034308
FBgn0034312
FBgn0034315
FBgn0034318
FBgn0034321
FBgn0034323
FBgn0034324
FBgn0034326
FBgn0034327
FBgn0034328
FBgn0034329
FBgn0034330
FBgn0034345
FBgn0034350
FBgn0034352
FBgn0034356
FBgn0034360
FBgn0034361
FBgn0034362
FBgn0034363
FBgn0034365
FBgn0034366
FBgn0034377
FBgn0034379
FBgn0034380
FBgn0034382
FBgn0034383
FBgn0034387
FBgn0034389
FBgn0034390
FBgn0034394
FBgn0034396
FBgn0034397
FBgn0034398
FBgn0034399
FBgn0034400
FBgn0034405
FBgn0034406
FBgn0034407
FBgn0034413
FBgn0034415
FBgn0034416
FBgn0034418
FBgn0034420
FBgn0034422
FBgn0034423
FBgn0034425
FBgn0034427
FBgn0034428
FBgn0034430
FBgn0034432
FBgn0034436
FBgn0034438
FBgn0034439
FBgn0034440
FBgn0034441
FBgn0034442
FBgn0034443
FBgn0034446
FBgn0034447
FBgn0034451
FBgn0034452
FBgn0034454
FBgn0034455
FBgn0034456
FBgn0034457
FBgn0034458
FBgn0034460
FBgn0034461
FBgn0034462
FBgn0034463
FBgn0034464
FBgn0034467
FBgn0034468
FBgn0034470
FBgn0034471
FBgn0034472
FBgn0034473
FBgn0034474
FBgn0034477
FBgn0034478
FBgn0034479
FBgn0034480
FBgn0034481
FBgn0034483
FBgn0034484
FBgn0034485
FBgn0034487
FBgn0034489
FBgn0034490
FBgn0034491
FBgn0034493
FBgn0034495
FBgn0034496
FBgn0034498
FBgn0034499
FBgn0034500
FBgn0034501
FBgn0034502
FBgn0034503
FBgn0034504
FBgn0034505
FBgn0034506
FBgn0034507
FBgn0034509
FBgn0034510
FBgn0034511
FBgn0034512
FBgn0034513
FBgn0034517
FBgn0034527
FBgn0034529
FBgn0034532
FBgn0034534
FBgn0034535
FBgn0034538
FBgn0034540
FBgn0034541
FBgn0034542
FBgn0034545
FBgn0034546
FBgn0034548
FBgn0034551
FBgn0034552
FBgn0034553
FBgn0034554
FBgn0034563
FBgn0034566
FBgn0034568
FBgn0034569
FBgn0034572
FBgn0034573
FBgn0034576
FBgn0034578
FBgn0034583
FBgn0034588
FBgn0034590
FBgn0034592
FBgn0034601
FBgn0034605
FBgn0034611
FBgn0034612
FBgn0034614
FBgn0034617
FBgn0034618
FBgn0034622
FBgn0034624
FBgn0034626
FBgn0034627
FBgn0034629
FBgn0034631
FBgn0034636
FBgn0034639
FBgn0034642
FBgn0034643
FBgn0034647
FBgn0034651
FBgn0034655
FBgn0034657
FBgn0034658
FBgn0034659
FBgn0034660
FBgn0034662
FBgn0034663
FBgn0034664
FBgn0034665
FBgn0034666
FBgn0034667
FBgn0034670
FBgn0034671
FBgn0034674
FBgn0034683
FBgn0034687
FBgn0034688
FBgn0034689
FBgn0034693
FBgn0034694
FBgn0034700
FBgn0034703
FBgn0034704
FBgn0034705
FBgn0034707
FBgn0034712
FBgn0034713
FBgn0034715
FBgn0034716
FBgn0034717
FBgn0034718
FBgn0034720
FBgn0034721
FBgn0034724
FBgn0034725
FBgn0034729
FBgn0034730
FBgn0034733
FBgn0034735
FBgn0034736
FBgn0034737
FBgn0034739
FBgn0034741
FBgn0034742
FBgn0034748
FBgn0034753
FBgn0034755
FBgn0034758
FBgn0034766
FBgn0034768
FBgn0034769
FBgn0034770
FBgn0034774
FBgn0034776
FBgn0034783
FBgn0034784
FBgn0034785
FBgn0034786
FBgn0034788
FBgn0034791
FBgn0034792
FBgn0034793
FBgn0034795
FBgn0034797
FBgn0034800
FBgn0034803
FBgn0034804
FBgn0034807
FBgn0034808
FBgn0034814
FBgn0034816
FBgn0034820
FBgn0034821
FBgn0034822
FBgn0034824
FBgn0034825
FBgn0034827
FBgn0034829
FBgn0034833
FBgn0034835
FBgn0034838
FBgn0034839
FBgn0034841
FBgn0034844
FBgn0034846
FBgn0034850
FBgn0034854
FBgn0034856
FBgn0034860
FBgn0034861
FBgn0034865
FBgn0034866
FBgn0034867
FBgn0034870
FBgn0034876
FBgn0034880
FBgn0034882
FBgn0034884
FBgn0034887
FBgn0034897
FBgn0034902
FBgn0034904
FBgn0034907
FBgn0034911
FBgn0034914
FBgn0034920
FBgn0034923
FBgn0034924
FBgn0034928
FBgn0034931
FBgn0034935
FBgn0034936
FBgn0034937
FBgn0034939
FBgn0034942
FBgn0034945
FBgn0034946
FBgn0034950
FBgn0034956
FBgn0034957
FBgn0034958
FBgn0034959
FBgn0034961
FBgn0034965
FBgn0034966
FBgn0034972
FBgn0034973
FBgn0034974
FBgn0034976
FBgn0034982
FBgn0034985
FBgn0034986
FBgn0034988
FBgn0034989
FBgn0034990
FBgn0034996
FBgn0034999
FBgn0035000
FBgn0035004
FBgn0035005
FBgn0035007
FBgn0035008
FBgn0035009
FBgn0035010
FBgn0035012
FBgn0035014
FBgn0035016
FBgn0035019
FBgn0035020
FBgn0035021
FBgn0035022
FBgn0035023
FBgn0035024
FBgn0035028
FBgn0035031
FBgn0035033
FBgn0035034
FBgn0035035
FBgn0035036
FBgn0035040
FBgn0035042
FBgn0035044
FBgn0035047
FBgn0035050
FBgn0035056
FBgn0035057
FBgn0035059
FBgn0035063
FBgn0035065
FBgn0035068
FBgn0035069
FBgn0035070
FBgn0035073
FBgn0035076
FBgn0035078
FBgn0035082
FBgn0035083
FBgn0035084
FBgn0035085
FBgn0035087
FBgn0035089
FBgn0035090
FBgn0035091
FBgn0035092
FBgn0035094
FBgn0035101
FBgn0035102
FBgn0035103
FBgn0035104
FBgn0035107
FBgn0035109
FBgn0035110
FBgn0035111
FBgn0035113
FBgn0035120
FBgn0035121
FBgn0035124
FBgn0035131
FBgn0035132
FBgn0035134
FBgn0035138
FBgn0035139
FBgn0035140
FBgn0035143
FBgn0035144
FBgn0035149
FBgn0035150
FBgn0035151
FBgn0035152
FBgn0035153
FBgn0035154
FBgn0035157
FBgn0035158
FBgn0035159
FBgn0035161
FBgn0035164
FBgn0035165
FBgn0035166
FBgn0035169
FBgn0035170
FBgn0035171
FBgn0035176
FBgn0035179
FBgn0035181
FBgn0035189
FBgn0035193
FBgn0035203
FBgn0035204
FBgn0035206
FBgn0035207
FBgn0035209
FBgn0035210
FBgn0035211
FBgn0035213
FBgn0035216
FBgn0035228
FBgn0035232
FBgn0035234
FBgn0035235
FBgn0035236
FBgn0035238
FBgn0035241
FBgn0035243
FBgn0035244
FBgn0035245
FBgn0035246
FBgn0035247
FBgn0035248
FBgn0035252
FBgn0035254
FBgn0035256
FBgn0035257
FBgn0035258
FBgn0035260
FBgn0035262
FBgn0035265
FBgn0035267
FBgn0035268
FBgn0035270
FBgn0035273
FBgn0035279
FBgn0035280
FBgn0035281
FBgn0035283
FBgn0035285
FBgn0035286
FBgn0035287
FBgn0035295
FBgn0035298
FBgn0035299
FBgn0035300
FBgn0035309
FBgn0035312
FBgn0035316
FBgn0035317
FBgn0035321
FBgn0035323
FBgn0035325
FBgn0035328
FBgn0035332
FBgn0035333
FBgn0035334
FBgn0035337
FBgn0035343
FBgn0035344
FBgn0035346
FBgn0035348
FBgn0035355
FBgn0035356
FBgn0035371
FBgn0035379
FBgn0035380
FBgn0035382
FBgn0035385
FBgn0035390
FBgn0035392
FBgn0035397
FBgn0035400
FBgn0035409
FBgn0035412
FBgn0035413
FBgn0035414
FBgn0035415
FBgn0035423
FBgn0035424
FBgn0035426
FBgn0035427
FBgn0035428
FBgn0035429
FBgn0035430
FBgn0035431
FBgn0035432
FBgn0035434
FBgn0035436
FBgn0035440
FBgn0035444
FBgn0035445
FBgn0035449
FBgn0035452
FBgn0035453
FBgn0035455
FBgn0035461
FBgn0035462
FBgn0035469
FBgn0035470
FBgn0035476
FBgn0035477
FBgn0035479
FBgn0035480
FBgn0035481
FBgn0035482
FBgn0035483
FBgn0035484
FBgn0035486
FBgn0035490
FBgn0035491
FBgn0035495
FBgn0035496
FBgn0035497
FBgn0035501
FBgn0035504
FBgn0035505
FBgn0035510
FBgn0035515
FBgn0035518
FBgn0035519
FBgn0035522
FBgn0035523
FBgn0035528
FBgn0035532
FBgn0035537
FBgn0035540
FBgn0035541
FBgn0035543
FBgn0035544
FBgn0035545
FBgn0035547
FBgn0035548
FBgn0035550
FBgn0035551
FBgn0035553
FBgn0035555
FBgn0035557
FBgn0035563
FBgn0035567
FBgn0035568
FBgn0035569
FBgn0035570
FBgn0035571
FBgn0035572
FBgn0035575
FBgn0035577
FBgn0035578
FBgn0035581
FBgn0035582
FBgn0035583
FBgn0035584
FBgn0035586
FBgn0035587
FBgn0035588
FBgn0035589
FBgn0035592
FBgn0035593
FBgn0035598
FBgn0035603
FBgn0035604
FBgn0035607
FBgn0035610
FBgn0035611
FBgn0035612
FBgn0035619
FBgn0035622
FBgn0035623
FBgn0035624
FBgn0035630
FBgn0035631
FBgn0035642
FBgn0035647
FBgn0035648
FBgn0035657
FBgn0035661
FBgn0035663
FBgn0035665
FBgn0035666
FBgn0035667
FBgn0035670
FBgn0035673
FBgn0035674
FBgn0035677
FBgn0035678
FBgn0035679
FBgn0035685
FBgn0035686
FBgn0035687
FBgn0035690
FBgn0035693
FBgn0035694
FBgn0035696
FBgn0035697
FBgn0035702
FBgn0035703
FBgn0035704
FBgn0035710
FBgn0035711
FBgn0035714
FBgn0035715
FBgn0035719
FBgn0035720
FBgn0035721
FBgn0035724
FBgn0035726
FBgn0035727
FBgn0035733
FBgn0035735
FBgn0035741
FBgn0035742
FBgn0035751
FBgn0035754
FBgn0035755
FBgn0035756
FBgn0035760
FBgn0035761
FBgn0035766
FBgn0035767
FBgn0035768
FBgn0035771
FBgn0035779
FBgn0035780
FBgn0035781
FBgn0035787
FBgn0035788
FBgn0035789
FBgn0035790
FBgn0035792
FBgn0035795
FBgn0035797
FBgn0035798
FBgn0035799
FBgn0035800
FBgn0035802
FBgn0035806
FBgn0035807
FBgn0035811
FBgn0035812
FBgn0035813
FBgn0035815
FBgn0035816
FBgn0035817
FBgn0035823
FBgn0035824
FBgn0035825
FBgn0035827
FBgn0035829
FBgn0035830
FBgn0035831
FBgn0035833
FBgn0035839
FBgn0035842
FBgn0035847
FBgn0035854
FBgn0035855
FBgn0035856
FBgn0035857
FBgn0035858
FBgn0035859
FBgn0035861
FBgn0035865
FBgn0035866
FBgn0035867
FBgn0035868
FBgn0035870
FBgn0035871
FBgn0035873
FBgn0035875
FBgn0035876
FBgn0035877
FBgn0035878
FBgn0035879
FBgn0035880
FBgn0035886
FBgn0035887
FBgn0035890
FBgn0035896
FBgn0035902
FBgn0035903
FBgn0035904
FBgn0035906
FBgn0035907
FBgn0035914
FBgn0035915
FBgn0035916
FBgn0035921
FBgn0035922
FBgn0035924
FBgn0035926
FBgn0035928
FBgn0035929
FBgn0035931
FBgn0035932
FBgn0035933
FBgn0035934
FBgn0035941
FBgn0035943
FBgn0035944
FBgn0035945
FBgn0035948
FBgn0035949
FBgn0035951
FBgn0035952
FBgn0035953
FBgn0035954
FBgn0035957
FBgn0035959
FBgn0035960
FBgn0035969
FBgn0035970
FBgn0035971
FBgn0035978
FBgn0035980
FBgn0035981
FBgn0035982
FBgn0035983
FBgn0035985
FBgn0035989
FBgn0035995
FBgn0035996
FBgn0035998
FBgn0035999
FBgn0036005
FBgn0036007
FBgn0036008
FBgn0036009
FBgn0036010
FBgn0036014
FBgn0036016
FBgn0036019
FBgn0036020
FBgn0036023
FBgn0036024
FBgn0036028
FBgn0036029
FBgn0036030
FBgn0036035
FBgn0036039
FBgn0036040
FBgn0036044
FBgn0036052
FBgn0036053
FBgn0036056
FBgn0036063
FBgn0036066
FBgn0036070
FBgn0036072
FBgn0036075
FBgn0036078
FBgn0036083
FBgn0036085
FBgn0036089
FBgn0036091
FBgn0036093
FBgn0036094
FBgn0036099
FBgn0036101
FBgn0036104
FBgn0036106
FBgn0036110
FBgn0036111
FBgn0036112
FBgn0036116
FBgn0036117
FBgn0036121
FBgn0036128
FBgn0036131
FBgn0036139
FBgn0036142
FBgn0036143
FBgn0036145
FBgn0036146
FBgn0036147
FBgn0036150
FBgn0036153
FBgn0036155
FBgn0036156
FBgn0036157
FBgn0036158
FBgn0036159
FBgn0036160
FBgn0036162
FBgn0036165
FBgn0036168
FBgn0036170
FBgn0036179
FBgn0036180
FBgn0036181
FBgn0036183
FBgn0036184
FBgn0036186
FBgn0036191
FBgn0036192
FBgn0036193
FBgn0036194
FBgn0036195
FBgn0036196
FBgn0036198
FBgn0036199
FBgn0036202
FBgn0036203
FBgn0036204
FBgn0036205
FBgn0036207
FBgn0036208
FBgn0036210
FBgn0036211
FBgn0036212
FBgn0036214
FBgn0036217
FBgn0036219
FBgn0036221
FBgn0036222
FBgn0036225
FBgn0036226
FBgn0036227
FBgn0036228
FBgn0036229
FBgn0036230
FBgn0036232
FBgn0036236
FBgn0036240
FBgn0036242
FBgn0036249
FBgn0036255
FBgn0036258
FBgn0036260
FBgn0036262
FBgn0036266
FBgn0036272
FBgn0036273
FBgn0036278
FBgn0036279
FBgn0036286
FBgn0036287
FBgn0036288
FBgn0036289
FBgn0036290
FBgn0036291
FBgn0036292
FBgn0036294
FBgn0036302
FBgn0036306
FBgn0036309
FBgn0036311
FBgn0036316
FBgn0036318
FBgn0036319
FBgn0036321
FBgn0036323
FBgn0036325
FBgn0036327
FBgn0036328
FBgn0036329
FBgn0036331
FBgn0036333
FBgn0036336
FBgn0036337
FBgn0036342
FBgn0036343
FBgn0036345
FBgn0036350
FBgn0036352
FBgn0036353
FBgn0036354
FBgn0036359
FBgn0036360
FBgn0036361
FBgn0036362
FBgn0036363
FBgn0036364
FBgn0036365
FBgn0036366
FBgn0036367
FBgn0036368
FBgn0036369
FBgn0036372
FBgn0036380
FBgn0036381
FBgn0036389
FBgn0036393
FBgn0036394
FBgn0036395
FBgn0036403
FBgn0036405
FBgn0036410
FBgn0036411
FBgn0036414
FBgn0036415
FBgn0036416
FBgn0036417
FBgn0036419
FBgn0036421
FBgn0036422
FBgn0036423
FBgn0036426
FBgn0036427
FBgn0036428
FBgn0036433
FBgn0036437
FBgn0036438
FBgn0036439
FBgn0036440
FBgn0036442
FBgn0036443
FBgn0036446
FBgn0036450
FBgn0036454
FBgn0036459
FBgn0036461
FBgn0036463
FBgn0036466
FBgn0036467
FBgn0036468
FBgn0036469
FBgn0036471
FBgn0036479
FBgn0036480
FBgn0036481
FBgn0036482
FBgn0036485
FBgn0036486
FBgn0036488
FBgn0036489
FBgn0036490
FBgn0036491
FBgn0036492
FBgn0036493
FBgn0036494
FBgn0036495
FBgn0036497
FBgn0036498
FBgn0036501
FBgn0036503
FBgn0036505
FBgn0036509
FBgn0036512
FBgn0036520
FBgn0036522
FBgn0036527
FBgn0036528
FBgn0036532
FBgn0036536
FBgn0036538
FBgn0036547
FBgn0036549
FBgn0036552
FBgn0036560
FBgn0036563
FBgn0036565
FBgn0036566
FBgn0036567
FBgn0036568
FBgn0036574
FBgn0036575
FBgn0036576
FBgn0036579
FBgn0036580
FBgn0036583
FBgn0036585
FBgn0036586
FBgn0036587
FBgn0036589
FBgn0036591
FBgn0036592
FBgn0036593
FBgn0036595
FBgn0036597
FBgn0036599
FBgn0036600
FBgn0036601
FBgn0036602
FBgn0036603
FBgn0036607
FBgn0036608
FBgn0036609
FBgn0036610
FBgn0036614
FBgn0036617
FBgn0036618
FBgn0036620
FBgn0036621
FBgn0036622
FBgn0036623
FBgn0036624
FBgn0036627
FBgn0036638
FBgn0036639
FBgn0036648
FBgn0036652
FBgn0036655
FBgn0036656
FBgn0036659
FBgn0036660
FBgn0036661
FBgn0036663
FBgn0036665
FBgn0036671
FBgn0036676
FBgn0036677
FBgn0036678
FBgn0036679
FBgn0036680
FBgn0036681
FBgn0036685
FBgn0036687
FBgn0036688
FBgn0036689
FBgn0036691
FBgn0036697
FBgn0036703
FBgn0036704
FBgn0036705
FBgn0036707
FBgn0036708
FBgn0036709
FBgn0036710
FBgn0036711
FBgn0036713
FBgn0036714
FBgn0036715
FBgn0036716
FBgn0036723
FBgn0036729
FBgn0036731
FBgn0036735
FBgn0036738
FBgn0036745
FBgn0036747
FBgn0036749
FBgn0036750
FBgn0036752
FBgn0036756
FBgn0036757
FBgn0036759
FBgn0036760
FBgn0036764
FBgn0036766
FBgn0036767
FBgn0036768
FBgn0036770
FBgn0036771
FBgn0036773
FBgn0036774
FBgn0036778
FBgn0036780
FBgn0036781
FBgn0036783
FBgn0036784
FBgn0036785
FBgn0036786
FBgn0036789
FBgn0036795
FBgn0036796
FBgn0036807
FBgn0036808
FBgn0036809
FBgn0036810
FBgn0036814
FBgn0036816
FBgn0036817
FBgn0036821
FBgn0036826
FBgn0036830
FBgn0036832
FBgn0036833
FBgn0036834
FBgn0036835
FBgn0036836
FBgn0036837
FBgn0036843
FBgn0036846
FBgn0036847
FBgn0036849
FBgn0036851
FBgn0036853
FBgn0036856
FBgn0036857
FBgn0036858
FBgn0036859
FBgn0036860
FBgn0036861
FBgn0036862
FBgn0036868
FBgn0036870
FBgn0036874
FBgn0036875
FBgn0036876
FBgn0036877
FBgn0036879
FBgn0036880
FBgn0036881
FBgn0036882
FBgn0036887
FBgn0036888
FBgn0036889
FBgn0036890
FBgn0036891
FBgn0036893
FBgn0036895
FBgn0036905
FBgn0036906
FBgn0036909
FBgn0036910
FBgn0036911
FBgn0036913
FBgn0036919
FBgn0036923
FBgn0036926
FBgn0036927
FBgn0036931
FBgn0036932
FBgn0036934
FBgn0036935
FBgn0036936
FBgn0036937
FBgn0036938
FBgn0036940
FBgn0036941
FBgn0036942
FBgn0036950
FBgn0036953
FBgn0036956
FBgn0036959
FBgn0036962
FBgn0036964
FBgn0036970
FBgn0036975
FBgn0036984
FBgn0036985
FBgn0036986
FBgn0036987
FBgn0036988
FBgn0036991
FBgn0036992
FBgn0036993
FBgn0036994
FBgn0036995
FBgn0036997
FBgn0036999
FBgn0037000
FBgn0037007
FBgn0037009
FBgn0037012
FBgn0037013
FBgn0037014
FBgn0037015
FBgn0037016
FBgn0037017
FBgn0037019
FBgn0037020
FBgn0037021
FBgn0037022
FBgn0037023
FBgn0037024
FBgn0037026
FBgn0037027
FBgn0037028
FBgn0037031
FBgn0037035
FBgn0037036
FBgn0037037
FBgn0037039
FBgn0037040
FBgn0037042
FBgn0037045
FBgn0037046
FBgn0037050
FBgn0037060
FBgn0037063
FBgn0037064
FBgn0037065
FBgn0037067
FBgn0037068
FBgn0037069
FBgn0037070
FBgn0037071
FBgn0037074
FBgn0037076
FBgn0037078
FBgn0037082
FBgn0037084
FBgn0037085
FBgn0037086
FBgn0037087
FBgn0037090
FBgn0037094
FBgn0037101
FBgn0037105
FBgn0037106
FBgn0037110
FBgn0037114
FBgn0037115
FBgn0037116
FBgn0037117
FBgn0037120
FBgn0037122
FBgn0037123
FBgn0037124
FBgn0037126
FBgn0037128
FBgn0037129
FBgn0037133
FBgn0037134
FBgn0037135
FBgn0037140
FBgn0037141
FBgn0037142
FBgn0037144
FBgn0037147
FBgn0037150
FBgn0037151
FBgn0037162
FBgn0037163
FBgn0037165
FBgn0037166
FBgn0037167
FBgn0037169
FBgn0037170
FBgn0037172
FBgn0037174
FBgn0037181
FBgn0037182
FBgn0037183
FBgn0037185
FBgn0037195
FBgn0037197
FBgn0037200
FBgn0037204
FBgn0037205
FBgn0037215
FBgn0037217
FBgn0037222
FBgn0037224
FBgn0037225
FBgn0037230
FBgn0037234
FBgn0037238
FBgn0037239
FBgn0037241
FBgn0037242
FBgn0037248
FBgn0037250
FBgn0037251
FBgn0037252
FBgn0037254
FBgn0037260
FBgn0037261
FBgn0037265
FBgn0037275
FBgn0037276
FBgn0037280
FBgn0037282
FBgn0037283
FBgn0037284
FBgn0037288
FBgn0037290
FBgn0037291
FBgn0037292
FBgn0037296
FBgn0037297
FBgn0037298
FBgn0037299
FBgn0037304
FBgn0037305
FBgn0037307
FBgn0037310
FBgn0037312
FBgn0037317
FBgn0037320
FBgn0037322
FBgn0037323
FBgn0037324
FBgn0037325
FBgn0037326
FBgn0037329
FBgn0037332
FBgn0037338
FBgn0037339
FBgn0037340
FBgn0037341
FBgn0037347
FBgn0037350
FBgn0037354
FBgn0037356
FBgn0037358
FBgn0037359
FBgn0037360
FBgn0037364
FBgn0037365
FBgn0037370
FBgn0037372
FBgn0037375
FBgn0037376
FBgn0037377
FBgn0037378
FBgn0037382
FBgn0037385
FBgn0037387
FBgn0037388
FBgn0037391
FBgn0037395
FBgn0037396
FBgn0037398
FBgn0037399
FBgn0037402
FBgn0037405
FBgn0037406
FBgn0037408
FBgn0037409
FBgn0037410
FBgn0037411
FBgn0037412
FBgn0037413
FBgn0037415
FBgn0037416
FBgn0037418
FBgn0037420
FBgn0037421
FBgn0037422
FBgn0037428
FBgn0037430
FBgn0037431
FBgn0037432
FBgn0037433
FBgn0037436
FBgn0037439
FBgn0037440
FBgn0037442
FBgn0037449
FBgn0037454
FBgn0037455
FBgn0037456
FBgn0037460
FBgn0037461
FBgn0037463
FBgn0037464
FBgn0037465
FBgn0037469
FBgn0037470
FBgn0037472
FBgn0037473
FBgn0037477
FBgn0037482
FBgn0037483
FBgn0037485
FBgn0037486
FBgn0037488
FBgn0037491
FBgn0037492
FBgn0037493
FBgn0037498
FBgn0037500
FBgn0037501
FBgn0037502
FBgn0037503
FBgn0037506
FBgn0037513
FBgn0037514
FBgn0037516
FBgn0037517
FBgn0037518
FBgn0037520
FBgn0037531
FBgn0037535
FBgn0037536
FBgn0037539
FBgn0037540
FBgn0037544
FBgn0037547
FBgn0037548
FBgn0037552
FBgn0037553
FBgn0037554
FBgn0037556
FBgn0037562
FBgn0037563
FBgn0037565
FBgn0037566
FBgn0037569
FBgn0037570
FBgn0037571
FBgn0037572
FBgn0037576
FBgn0037577
FBgn0037578
FBgn0037579
FBgn0037580
FBgn0037583
FBgn0037590
FBgn0037591
FBgn0037592
FBgn0037594
FBgn0037601
FBgn0037602
FBgn0037606
FBgn0037607
FBgn0037611
FBgn0037612
FBgn0037615
FBgn0037617
FBgn0037619
FBgn0037620
FBgn0037622
FBgn0037624
FBgn0037626
FBgn0037627
FBgn0037630
FBgn0037633
FBgn0037634
FBgn0037635
FBgn0037638
FBgn0037644
FBgn0037647
FBgn0037648
FBgn0037650
FBgn0037652
FBgn0037653
FBgn0037654
FBgn0037656
FBgn0037659
FBgn0037661
FBgn0037665
FBgn0037668
FBgn0037670
FBgn0037676
FBgn0037677
FBgn0037678
FBgn0037683
FBgn0037684
FBgn0037685
FBgn0037686
FBgn0037687
FBgn0037689
FBgn0037690
FBgn0037696
FBgn0037697
FBgn0037700
FBgn0037703
FBgn0037705
FBgn0037709
FBgn0037710
FBgn0037712
FBgn0037713
FBgn0037714
FBgn0037715
FBgn0037716
FBgn0037717
FBgn0037719
FBgn0037722
FBgn0037723
FBgn0037727
FBgn0037728
FBgn0037730
FBgn0037736
FBgn0037737
FBgn0037739
FBgn0037743
FBgn0037747
FBgn0037750
FBgn0037751
FBgn0037753
FBgn0037754
FBgn0037755
FBgn0037758
FBgn0037760
FBgn0037761
FBgn0037762
FBgn0037764
FBgn0037765
FBgn0037766
FBgn0037770
FBgn0037773
FBgn0037780
FBgn0037781
FBgn0037782
FBgn0037786
FBgn0037788
FBgn0037794
FBgn0037796
FBgn0037798
FBgn0037807
FBgn0037809
FBgn0037810
FBgn0037814
FBgn0037816
FBgn0037817
FBgn0037818
FBgn0037819
FBgn0037822
FBgn0037824
FBgn0037828
FBgn0037832
FBgn0037836
FBgn0037837
FBgn0037838
FBgn0037841
FBgn0037842
FBgn0037844
FBgn0037845
FBgn0037846
FBgn0037848
FBgn0037849
FBgn0037850
FBgn0037853
FBgn0037855
FBgn0037857
FBgn0037860
FBgn0037862
FBgn0037870
FBgn0037876
FBgn0037879
FBgn0037880
FBgn0037881
FBgn0037883
FBgn0037885
FBgn0037888
FBgn0037889
FBgn0037890
FBgn0037894
FBgn0037895
FBgn0037896
FBgn0037897
FBgn0037900
FBgn0037901
FBgn0037908
FBgn0037910
FBgn0037911
FBgn0037913
FBgn0037915
FBgn0037916
FBgn0037920
FBgn0037921
FBgn0037930
FBgn0037931
FBgn0037934
FBgn0037936
FBgn0037939
FBgn0037940
FBgn0037941
FBgn0037955
FBgn0037958
FBgn0037960
FBgn0037962
FBgn0037963
FBgn0037964
FBgn0037970
FBgn0037972
FBgn0037973
FBgn0037974
FBgn0037978
FBgn0037979
FBgn0037981
FBgn0037985
FBgn0037986
FBgn0037988
FBgn0037989
FBgn0037992
FBgn0037994
FBgn0037995
FBgn0037996
FBgn0037998
FBgn0037999
FBgn0038000
FBgn0038001
FBgn0038003
FBgn0038005
FBgn0038006
FBgn0038007
FBgn0038008
FBgn0038009
FBgn0038011
FBgn0038012
FBgn0038013
FBgn0038014
FBgn0038017
FBgn0038018
FBgn0038020
FBgn0038029
FBgn0038032
FBgn0038033
FBgn0038037
FBgn0038038
FBgn0038039
FBgn0038042
FBgn0038047
FBgn0038053
FBgn0038054
FBgn0038056
FBgn0038058
FBgn0038063
FBgn0038067
FBgn0038068
FBgn0038069
FBgn0038070
FBgn0038073
FBgn0038074
FBgn0038078
FBgn0038079
FBgn0038080
FBgn0038084
FBgn0038087
FBgn0038089
FBgn0038090
FBgn0038092
FBgn0038095
FBgn0038097
FBgn0038098
FBgn0038099
FBgn0038105
FBgn0038107
FBgn0038108
FBgn0038109
FBgn0038110
FBgn0038113
FBgn0038114
FBgn0038115
FBgn0038122
FBgn0038123
FBgn0038125
FBgn0038128
FBgn0038129
FBgn0038135
FBgn0038136
FBgn0038140
FBgn0038142
FBgn0038143
FBgn0038144
FBgn0038147
FBgn0038148
FBgn0038149
FBgn0038153
FBgn0038156
FBgn0038157
FBgn0038158
FBgn0038159
FBgn0038160
FBgn0038163
FBgn0038166
FBgn0038172
FBgn0038173
FBgn0038179
FBgn0038183
FBgn0038186
FBgn0038188
FBgn0038189
FBgn0038191
FBgn0038194
FBgn0038196
FBgn0038197
FBgn0038198
FBgn0038201
FBgn0038202
FBgn0038203
FBgn0038204
FBgn0038205
FBgn0038208
FBgn0038210
FBgn0038213
FBgn0038214
FBgn0038218
FBgn0038219
FBgn0038221
FBgn0038224
FBgn0038225
FBgn0038233
FBgn0038236
FBgn0038237
FBgn0038238
FBgn0038240
FBgn0038243
FBgn0038244
FBgn0038246
FBgn0038247
FBgn0038248
FBgn0038250
FBgn0038251
FBgn0038256
FBgn0038257
FBgn0038258
FBgn0038260
FBgn0038261
FBgn0038266
FBgn0038268
FBgn0038272
FBgn0038273
FBgn0038274
FBgn0038279
FBgn0038280
FBgn0038282
FBgn0038285
FBgn0038286
FBgn0038290
FBgn0038291
FBgn0038292
FBgn0038295
FBgn0038296
FBgn0038299
FBgn0038302
FBgn0038303
FBgn0038306
FBgn0038312
FBgn0038313
FBgn0038315
FBgn0038316
FBgn0038318
FBgn0038321
FBgn0038324
FBgn0038325
FBgn0038327
FBgn0038330
FBgn0038332
FBgn0038334
FBgn0038337
FBgn0038349
FBgn0038350
FBgn0038353
FBgn0038354
FBgn0038355
FBgn0038356
FBgn0038357
FBgn0038358
FBgn0038359
FBgn0038360
FBgn0038363
FBgn0038365
FBgn0038366
FBgn0038369
FBgn0038371
FBgn0038373
FBgn0038376
FBgn0038385
FBgn0038386
FBgn0038389
FBgn0038394
FBgn0038395
FBgn0038396
FBgn0038397
FBgn0038398
FBgn0038400
FBgn0038404
FBgn0038405
FBgn0038407
FBgn0038412
FBgn0038414
FBgn0038415
FBgn0038416
FBgn0038419
FBgn0038420
FBgn0038421
FBgn0038423
FBgn0038424
FBgn0038425
FBgn0038426
FBgn0038429
FBgn0038432
FBgn0038436
FBgn0038437
FBgn0038439
FBgn0038440
FBgn0038445
FBgn0038446
FBgn0038448
FBgn0038449
FBgn0038450
FBgn0038451
FBgn0038452
FBgn0038453
FBgn0038455
FBgn0038458
FBgn0038460
FBgn0038463
FBgn0038468
FBgn0038469
FBgn0038470
FBgn0038471
FBgn0038472
FBgn0038474
FBgn0038479
FBgn0038481
FBgn0038482
FBgn0038484
FBgn0038485
FBgn0038486
FBgn0038488
FBgn0038490
FBgn0038491
FBgn0038494
FBgn0038498
FBgn0038504
FBgn0038505
FBgn0038506
FBgn0038507
FBgn0038508
FBgn0038509
FBgn0038510
FBgn0038511
FBgn0038512
FBgn0038515
FBgn0038516
FBgn0038519
FBgn0038523
FBgn0038526
FBgn0038527
FBgn0038528
FBgn0038529
FBgn0038530
FBgn0038531
FBgn0038532
FBgn0038536
FBgn0038539
FBgn0038540
FBgn0038541
FBgn0038542
FBgn0038546
FBgn0038547
FBgn0038548
FBgn0038550
FBgn0038558
FBgn0038564
FBgn0038565
FBgn0038566
FBgn0038567
FBgn0038568
FBgn0038569
FBgn0038575
FBgn0038576
FBgn0038577
FBgn0038579
FBgn0038581
FBgn0038582
FBgn0038586
FBgn0038588
FBgn0038590
FBgn0038593
FBgn0038596
FBgn0038601
FBgn0038602
FBgn0038603
FBgn0038606
FBgn0038607
FBgn0038609
FBgn0038610
FBgn0038611
FBgn0038612
FBgn0038619
FBgn0038621
FBgn0038626
FBgn0038627
FBgn0038629
FBgn0038630
FBgn0038632
FBgn0038638
FBgn0038640
FBgn0038643
FBgn0038645
FBgn0038646
FBgn0038647
FBgn0038651
FBgn0038652
FBgn0038653
FBgn0038654
FBgn0038656
FBgn0038658
FBgn0038660
FBgn0038665
FBgn0038672
FBgn0038673
FBgn0038674
FBgn0038675
FBgn0038679
FBgn0038680
FBgn0038681
FBgn0038682
FBgn0038683
FBgn0038690
FBgn0038691
FBgn0038693
FBgn0038694
FBgn0038695
FBgn0038697
FBgn0038700
FBgn0038701
FBgn0038702
FBgn0038705
FBgn0038708
FBgn0038709
FBgn0038716
FBgn0038717
FBgn0038719
FBgn0038725
FBgn0038727
FBgn0038732
FBgn0038734
FBgn0038735
FBgn0038737
FBgn0038738
FBgn0038739
FBgn0038741
FBgn0038742
FBgn0038744
FBgn0038745
FBgn0038747
FBgn0038749
FBgn0038750
FBgn0038751
FBgn0038753
FBgn0038756
FBgn0038761
FBgn0038763
FBgn0038765
FBgn0038766
FBgn0038767
FBgn0038769
FBgn0038773
FBgn0038774
FBgn0038775
FBgn0038784
FBgn0038789
FBgn0038790
FBgn0038795
FBgn0038798
FBgn0038803
FBgn0038804
FBgn0038809
FBgn0038811
FBgn0038816
FBgn0038819
FBgn0038820
FBgn0038827
FBgn0038828
FBgn0038830
FBgn0038832
FBgn0038833
FBgn0038837
FBgn0038838
FBgn0038839
FBgn0038842
FBgn0038845
FBgn0038851
FBgn0038854
FBgn0038855
FBgn0038857
FBgn0038858
FBgn0038859
FBgn0038861
FBgn0038866
FBgn0038869
FBgn0038870
FBgn0038873
FBgn0038876
FBgn0038877
FBgn0038878
FBgn0038879
FBgn0038880
FBgn0038881
FBgn0038888
FBgn0038890
FBgn0038892
FBgn0038894
FBgn0038897
FBgn0038901
FBgn0038902
FBgn0038912
FBgn0038914
FBgn0038915
FBgn0038917
FBgn0038918
FBgn0038921
FBgn0038924
FBgn0038926
FBgn0038928
FBgn0038929
FBgn0038931
FBgn0038934
FBgn0038941
FBgn0038942
FBgn0038943
FBgn0038946
FBgn0038948
FBgn0038952
FBgn0038953
FBgn0038956
FBgn0038957
FBgn0038958
FBgn0038959
FBgn0038960
FBgn0038961
FBgn0038966
FBgn0038967
FBgn0038972
FBgn0038973
FBgn0038974
FBgn0038975
FBgn0038977
FBgn0038979
FBgn0038980
FBgn0038981
FBgn0038993
FBgn0039002
FBgn0039003
FBgn0039006
FBgn0039007
FBgn0039009
FBgn0039010
FBgn0039015
FBgn0039017
FBgn0039019
FBgn0039020
FBgn0039022
FBgn0039023
FBgn0039024
FBgn0039025
FBgn0039026
FBgn0039027
FBgn0039029
FBgn0039031
FBgn0039033
FBgn0039038
FBgn0039040
FBgn0039041
FBgn0039042
FBgn0039045
FBgn0039048
FBgn0039052
FBgn0039053
FBgn0039055
FBgn0039056
FBgn0039058
FBgn0039059
FBgn0039064
FBgn0039065
FBgn0039068
FBgn0039069
FBgn0039071
FBgn0039073
FBgn0039077
FBgn0039079
FBgn0039080
FBgn0039083
FBgn0039084
FBgn0039085
FBgn0039086
FBgn0039087
FBgn0039088
FBgn0039089
FBgn0039091
FBgn0039093
FBgn0039094
FBgn0039098
FBgn0039099
FBgn0039101
FBgn0039104
FBgn0039107
FBgn0039108
FBgn0039109
FBgn0039110
FBgn0039115
FBgn0039117
FBgn0039118
FBgn0039124
FBgn0039126
FBgn0039128
FBgn0039130
FBgn0039135
FBgn0039136
FBgn0039137
FBgn0039145
FBgn0039147
FBgn0039149
FBgn0039151
FBgn0039152
FBgn0039154
FBgn0039156
FBgn0039157
FBgn0039158
FBgn0039160
FBgn0039161
FBgn0039163
FBgn0039165
FBgn0039167
FBgn0039170
FBgn0039178
FBgn0039180
FBgn0039184
FBgn0039187
FBgn0039189
FBgn0039192
FBgn0039193
FBgn0039194
FBgn0039196
FBgn0039197
FBgn0039198
FBgn0039199
FBgn0039200
FBgn0039201
FBgn0039202
FBgn0039203
FBgn0039217
FBgn0039223
FBgn0039224
FBgn0039226
FBgn0039227
FBgn0039228
FBgn0039232
FBgn0039235
FBgn0039237
FBgn0039238
FBgn0039239
FBgn0039240
FBgn0039241
FBgn0039244
FBgn0039250
FBgn0039251
FBgn0039252
FBgn0039261
FBgn0039264
FBgn0039265
FBgn0039266
FBgn0039269
FBgn0039270
FBgn0039271
FBgn0039273
FBgn0039277
FBgn0039280
FBgn0039283
FBgn0039288
FBgn0039290
FBgn0039291
FBgn0039293
FBgn0039294
FBgn0039297
FBgn0039299
FBgn0039303
FBgn0039304
FBgn0039305
FBgn0039310
FBgn0039311
FBgn0039312
FBgn0039313
FBgn0039316
FBgn0039319
FBgn0039321
FBgn0039323
FBgn0039324
FBgn0039325
FBgn0039326
FBgn0039328
FBgn0039329
FBgn0039331
FBgn0039332
FBgn0039335
FBgn0039336
FBgn0039339
FBgn0039341
FBgn0039342
FBgn0039343
FBgn0039344
FBgn0039347
FBgn0039350
FBgn0039355
FBgn0039356
FBgn0039357
FBgn0039358
FBgn0039360
FBgn0039366
FBgn0039367
FBgn0039368
FBgn0039370
FBgn0039371
FBgn0039373
FBgn0039374
FBgn0039379
FBgn0039380
FBgn0039381
FBgn0039387
FBgn0039395
FBgn0039396
FBgn0039398
FBgn0039405
FBgn0039408
FBgn0039415
FBgn0039417
FBgn0039419
FBgn0039420
FBgn0039421
FBgn0039424
FBgn0039425
FBgn0039427
FBgn0039429
FBgn0039430
FBgn0039439
FBgn0039441
FBgn0039443
FBgn0039444
FBgn0039451
FBgn0039453
FBgn0039454
FBgn0039462
FBgn0039463
FBgn0039464
FBgn0039465
FBgn0039466
FBgn0039467
FBgn0039470
FBgn0039471
FBgn0039472
FBgn0039476
FBgn0039478
FBgn0039479
FBgn0039482
FBgn0039483
FBgn0039485
FBgn0039487
FBgn0039490
FBgn0039491
FBgn0039494
FBgn0039498
FBgn0039500
FBgn0039501
FBgn0039503
FBgn0039504
FBgn0039505
FBgn0039507
FBgn0039508
FBgn0039510
FBgn0039511
FBgn0039518
FBgn0039519
FBgn0039520
FBgn0039522
FBgn0039525
FBgn0039528
FBgn0039529
FBgn0039530
FBgn0039531
FBgn0039532
FBgn0039536
FBgn0039537
FBgn0039544
FBgn0039551
FBgn0039554
FBgn0039559
FBgn0039560
FBgn0039563
FBgn0039565
FBgn0039568
FBgn0039581
FBgn0039582
FBgn0039584
FBgn0039585
FBgn0039589
FBgn0039590
FBgn0039591
FBgn0039592
FBgn0039596
FBgn0039597
FBgn0039599
FBgn0039600
FBgn0039601
FBgn0039602
FBgn0039609
FBgn0039612
FBgn0039613
FBgn0039616
FBgn0039621
FBgn0039623
FBgn0039625
FBgn0039629
FBgn0039630
FBgn0039631
FBgn0039634
FBgn0039637
FBgn0039638
FBgn0039640
FBgn0039641
FBgn0039642
FBgn0039644
FBgn0039645
FBgn0039647
FBgn0039648
FBgn0039650
FBgn0039654
FBgn0039655
FBgn0039656
FBgn0039659
FBgn0039663
FBgn0039665
FBgn0039669
FBgn0039670
FBgn0039671
FBgn0039673
FBgn0039674
FBgn0039675
FBgn0039679
FBgn0039681
FBgn0039682
FBgn0039684
FBgn0039685
FBgn0039687
FBgn0039690
FBgn0039696
FBgn0039703
FBgn0039705
FBgn0039709
FBgn0039711
FBgn0039712
FBgn0039718
FBgn0039719
FBgn0039723
FBgn0039727
FBgn0039731
FBgn0039732
FBgn0039733
FBgn0039734
FBgn0039735
FBgn0039736
FBgn0039739
FBgn0039741
FBgn0039742
FBgn0039743
FBgn0039744
FBgn0039748
FBgn0039749
FBgn0039752
FBgn0039755
FBgn0039758
FBgn0039760
FBgn0039764
FBgn0039767
FBgn0039768
FBgn0039769
FBgn0039771
FBgn0039773
FBgn0039776
FBgn0039777
FBgn0039779
FBgn0039780
FBgn0039782
FBgn0039784
FBgn0039789
FBgn0039790
FBgn0039792
FBgn0039795
FBgn0039796
FBgn0039798
FBgn0039800
FBgn0039801
FBgn0039802
FBgn0039804
FBgn0039809
FBgn0039812
FBgn0039818
FBgn0039821
FBgn0039827
FBgn0039829
FBgn0039832
FBgn0039833
FBgn0039839
FBgn0039840
FBgn0039844
FBgn0039848
FBgn0039849
FBgn0039850
FBgn0039851
FBgn0039854
FBgn0039855
FBgn0039856
FBgn0039859
FBgn0039860
FBgn0039863
FBgn0039867
FBgn0039868
FBgn0039869
FBgn0039872
FBgn0039876
FBgn0039877
FBgn0039879
FBgn0039881
FBgn0039886
FBgn0039887
FBgn0039889
FBgn0039890
FBgn0039896
FBgn0039897
FBgn0039900
FBgn0039902
FBgn0039911
FBgn0039916
FBgn0039920
FBgn0039925
FBgn0039927
FBgn0039928
FBgn0039929
FBgn0039930
FBgn0039936
FBgn0039941
FBgn0039955
FBgn0039965
FBgn0039972
FBgn0039993
FBgn0039994
FBgn0040005
FBgn0040010
FBgn0040031
FBgn0040038
FBgn0040060
FBgn0040063
FBgn0040064
FBgn0040069
FBgn0040070
FBgn0040076
FBgn0040077
FBgn0040089
FBgn0040091
FBgn0040092
FBgn0040096
FBgn0040097
FBgn0040099
FBgn0040102
FBgn0040106
FBgn0040107
FBgn0040211
FBgn0040212
FBgn0040230
FBgn0040234
FBgn0040236
FBgn0040238
FBgn0040239
FBgn0040250
FBgn0040251
FBgn0040253
FBgn0040256
FBgn0040257
FBgn0040259
FBgn0040260
FBgn0040261
FBgn0040285
FBgn0040291
FBgn0040296
FBgn0040318
FBgn0040319
FBgn0040321
FBgn0040322
FBgn0040324
FBgn0040333
FBgn0040334
FBgn0040337
FBgn0040338
FBgn0040340
FBgn0040341
FBgn0040342
FBgn0040343
FBgn0040344
FBgn0040345
FBgn0040347
FBgn0040349
FBgn0040350
FBgn0040351
FBgn0040352
FBgn0040353
FBgn0040356
FBgn0040358
FBgn0040359
FBgn0040360
FBgn0040362
FBgn0040364
FBgn0040365
FBgn0040367
FBgn0040368
FBgn0040370
FBgn0040371
FBgn0040372
FBgn0040373
FBgn0040375
FBgn0040382
FBgn0040383
FBgn0040384
FBgn0040388
FBgn0040391
FBgn0040392
FBgn0040393
FBgn0040396
FBgn0040397
FBgn0040465
FBgn0040466
FBgn0040467
FBgn0040475
FBgn0040502
FBgn0040503
FBgn0040508
FBgn0040509
FBgn0040510
FBgn0040513
FBgn0040519
FBgn0040524
FBgn0040528
FBgn0040532
FBgn0040571
FBgn0040582
FBgn0040600
FBgn0040601
FBgn0040602
FBgn0040606
FBgn0040607
FBgn0040609
FBgn0040628
FBgn0040629
FBgn0040634
FBgn0040636
FBgn0040637
FBgn0040648
FBgn0040650
FBgn0040651
FBgn0040653
FBgn0040660
FBgn0040674
FBgn0040679
FBgn0040687
FBgn0040696
FBgn0040697
FBgn0040699
FBgn0040705
FBgn0040717
FBgn0040718
FBgn0040723
FBgn0040726
FBgn0040729
FBgn0040730
FBgn0040732
FBgn0040734
FBgn0040735
FBgn0040736
FBgn0040743
FBgn0040747
FBgn0040752
FBgn0040754
FBgn0040755
FBgn0040763
FBgn0040773
FBgn0040777
FBgn0040786
FBgn0040794
FBgn0040795
FBgn0040796
FBgn0040797
FBgn0040798
FBgn0040801
FBgn0040805
FBgn0040812
FBgn0040814
FBgn0040816
FBgn0040817
FBgn0040823
FBgn0040827
FBgn0040828
FBgn0040832
FBgn0040842
FBgn0040843
FBgn0040850
FBgn0040877
FBgn0040892
FBgn0040899
FBgn0040900
FBgn0040904
FBgn0040905
FBgn0040906
FBgn0040929
FBgn0040931
FBgn0040941
FBgn0040949
FBgn0040950
FBgn0040958
FBgn0040959
FBgn0040963
FBgn0040964
FBgn0040967
FBgn0040968
FBgn0040972
FBgn0040984
FBgn0040989
FBgn0040992
FBgn0040996
FBgn0041004
FBgn0041087
FBgn0041094
FBgn0041097
FBgn0041102
FBgn0041103
FBgn0041150
FBgn0041156
FBgn0041180
FBgn0041181
FBgn0041182
FBgn0041183
FBgn0041184
FBgn0041195
FBgn0041205
FBgn0041210
FBgn0041224
FBgn0041225
FBgn0041229
FBgn0041231
FBgn0041232
FBgn0041233
FBgn0041236
FBgn0041237
FBgn0041238
FBgn0041239
FBgn0041240
FBgn0041241
FBgn0041242
FBgn0041243
FBgn0041245
FBgn0041246
FBgn0041247
FBgn0041252
FBgn0041337
FBgn0041581
FBgn0041588
FBgn0041621
FBgn0041622
FBgn0041623
FBgn0041624
FBgn0041625
FBgn0041627
FBgn0041629
FBgn0041630
FBgn0041702
FBgn0041706
FBgn0041710
FBgn0041711
FBgn0041712
FBgn0041780
FBgn0042098
FBgn0042101
FBgn0042102
FBgn0042103
FBgn0042104
FBgn0042105
FBgn0042106
FBgn0042110
FBgn0042111
FBgn0042118
FBgn0042119
FBgn0042126
FBgn0042131
FBgn0042132
FBgn0042133
FBgn0042134
FBgn0042135
FBgn0042137
FBgn0042138
FBgn0042146
FBgn0042173
FBgn0042177
FBgn0042179
FBgn0042182
FBgn0042185
FBgn0042187
FBgn0042189
FBgn0042198
FBgn0042199
FBgn0042201
FBgn0042206
FBgn0042207
FBgn0042213
FBgn0042710
FBgn0042711
FBgn0042712
FBgn0043001
FBgn0043002
FBgn0043005
FBgn0043025
FBgn0043043
FBgn0043069
FBgn0043362
FBgn0043455
FBgn0043457
FBgn0043458
FBgn0043470
FBgn0043530
FBgn0043532
FBgn0043533
FBgn0043534
FBgn0043536
FBgn0043539
FBgn0043550
FBgn0043575
FBgn0043576
FBgn0043783
FBgn0043792
FBgn0043796
FBgn0043799
FBgn0043806
FBgn0043841
FBgn0043854
FBgn0043865
FBgn0044011
FBgn0044020
FBgn0044046
FBgn0044048
FBgn0044049
FBgn0044050
FBgn0044051
FBgn0044328
FBgn0044511
FBgn0044809
FBgn0044811
FBgn0044823
FBgn0044871
FBgn0045038
FBgn0045064
FBgn0045442
FBgn0045443
FBgn0045468
FBgn0045469
FBgn0045470
FBgn0045473
FBgn0045478
FBgn0045479
FBgn0045485
FBgn0045486
FBgn0045487
FBgn0045495
FBgn0045497
FBgn0045761
FBgn0045770
FBgn0045823
FBgn0045827
FBgn0045842
FBgn0045852
FBgn0046114
FBgn0046214
FBgn0046225
FBgn0046247
FBgn0046253
FBgn0046258
FBgn0046294
FBgn0046296
FBgn0046301
FBgn0046302
FBgn0046332
FBgn0046687
FBgn0046689
FBgn0046793
FBgn0046873
FBgn0046876
FBgn0046878
FBgn0046880
FBgn0046885
FBgn0046886
FBgn0046887
FBgn0046888
FBgn0046999
FBgn0047114
FBgn0047135
FBgn0047178
FBgn0047334
FBgn0047338
FBgn0047351
FBgn0050000
FBgn0050001
FBgn0050005
FBgn0050008
FBgn0050010
FBgn0050011
FBgn0050015
FBgn0050016
FBgn0050020
FBgn0050021
FBgn0050026
FBgn0050033
FBgn0050037
FBgn0050039
FBgn0050042
FBgn0050044
FBgn0050045
FBgn0050046
FBgn0050047
FBgn0050048
FBgn0050050
FBgn0050051
FBgn0050052
FBgn0050053
FBgn0050054
FBgn0050056
FBgn0050058
FBgn0050062
FBgn0050065
FBgn0050072
FBgn0050073
FBgn0050074
FBgn0050075
FBgn0050076
FBgn0050077
FBgn0050081
FBgn0050083
FBgn0050087
FBgn0050088
FBgn0050089
FBgn0050090
FBgn0050091
FBgn0050093
FBgn0050094
FBgn0050095
FBgn0050096
FBgn0050099
FBgn0050100
FBgn0050103
FBgn0050104
FBgn0050105
FBgn0050106
FBgn0050108
FBgn0050109
FBgn0050110
FBgn0050120
FBgn0050122
FBgn0050125
FBgn0050145
FBgn0050147
FBgn0050148
FBgn0050151
FBgn0050158
FBgn0050159
FBgn0050163
FBgn0050169
FBgn0050172
FBgn0050177
FBgn0050183
FBgn0050184
FBgn0050185
FBgn0050187
FBgn0050192
FBgn0050195
FBgn0050196
FBgn0050197
FBgn0050203
FBgn0050259
FBgn0050263
FBgn0050265
FBgn0050268
FBgn0050269
FBgn0050273
FBgn0050274
FBgn0050278
FBgn0050280
FBgn0050284
FBgn0050285
FBgn0050286
FBgn0050291
FBgn0050323
FBgn0050324
FBgn0050325
FBgn0050334
FBgn0050339
FBgn0050343
FBgn0050344
FBgn0050345
FBgn0050355
FBgn0050356
FBgn0050357
FBgn0050359
FBgn0050360
FBgn0050361
FBgn0050362
FBgn0050363
FBgn0050364
FBgn0050366
FBgn0050369
FBgn0050371
FBgn0050372
FBgn0050373
FBgn0050375
FBgn0050377
FBgn0050378
FBgn0050379
FBgn0050380
FBgn0050381
FBgn0050383
FBgn0050384
FBgn0050389
FBgn0050390
FBgn0050391
FBgn0050392
FBgn0050393
FBgn0050394
FBgn0050395
FBgn0050398
FBgn0050401
FBgn0050409
FBgn0050410
FBgn0050411
FBgn0050412
FBgn0050413
FBgn0050414
FBgn0050416
FBgn0050417
FBgn0050418
FBgn0050423
FBgn0050428
FBgn0050429
FBgn0050430
FBgn0050431
FBgn0050432
FBgn0050438
FBgn0050440
FBgn0050441
FBgn0050443
FBgn0050447
FBgn0050456
FBgn0050457
FBgn0050458
FBgn0050460
FBgn0050461
FBgn0050462
FBgn0050464
FBgn0050467
FBgn0050469
FBgn0050471
FBgn0050472
FBgn0050479
FBgn0050484
FBgn0050485
FBgn0050486
FBgn0050487
FBgn0050488
FBgn0050491
FBgn0050495
FBgn0050496
FBgn0050499
FBgn0050502
FBgn0050503
FBgn0051002
FBgn0051010
FBgn0051013
FBgn0051014
FBgn0051015
FBgn0051016
FBgn0051017
FBgn0051021
FBgn0051025
FBgn0051028
FBgn0051029
FBgn0051036
FBgn0051038
FBgn0051040
FBgn0051041
FBgn0051050
FBgn0051051
FBgn0051053
FBgn0051055
FBgn0051064
FBgn0051072
FBgn0051075
FBgn0051076
FBgn0051077
FBgn0051080
FBgn0051081
FBgn0051086
FBgn0051088
FBgn0051089
FBgn0051091
FBgn0051092
FBgn0051093
FBgn0051098
FBgn0051102
FBgn0051103
FBgn0051104
FBgn0051105
FBgn0051106
FBgn0051109
FBgn0051115
FBgn0051118
FBgn0051122
FBgn0051125
FBgn0051128
FBgn0051141
FBgn0051146
FBgn0051148
FBgn0051151
FBgn0051157
FBgn0051158
FBgn0051161
FBgn0051163
FBgn0051164
FBgn0051176
FBgn0051183
FBgn0051189
FBgn0051198
FBgn0051199
FBgn0051200
FBgn0051202
FBgn0051204
FBgn0051205
FBgn0051206
FBgn0051207
FBgn0051211
FBgn0051213
FBgn0051216
FBgn0051219
FBgn0051220
FBgn0051221
FBgn0051226
FBgn0051230
FBgn0051245
FBgn0051248
FBgn0051249
FBgn0051259
FBgn0051262
FBgn0051265
FBgn0051266
FBgn0051267
FBgn0051268
FBgn0051269
FBgn0051272
FBgn0051278
FBgn0051287
FBgn0051288
FBgn0051296
FBgn0051300
FBgn0051301
FBgn0051313
FBgn0051321
FBgn0051323
FBgn0051324
FBgn0051326
FBgn0051337
FBgn0051342
FBgn0051343
FBgn0051345
FBgn0051347
FBgn0051352
FBgn0051357
FBgn0051358
FBgn0051360
FBgn0051363
FBgn0051365
FBgn0051370
FBgn0051371
FBgn0051391
FBgn0051404
FBgn0051407
FBgn0051410
FBgn0051414
FBgn0051418
FBgn0051423
FBgn0051431
FBgn0051437
FBgn0051438
FBgn0051445
FBgn0051446
FBgn0051450
FBgn0051453
FBgn0051454
FBgn0051457
FBgn0051459
FBgn0051463
FBgn0051464
FBgn0051465
FBgn0051467
FBgn0051469
FBgn0051473
FBgn0051477
FBgn0051493
FBgn0051496
FBgn0051501
FBgn0051510
FBgn0051515
FBgn0051516
FBgn0051522
FBgn0051524
FBgn0051525
FBgn0051526
FBgn0051528
FBgn0051538
FBgn0051542
FBgn0051546
FBgn0051547
FBgn0051548
FBgn0051550
FBgn0051559
FBgn0051560
FBgn0051601
FBgn0051606
FBgn0051609
FBgn0051611
FBgn0051612
FBgn0051632
FBgn0051634
FBgn0051636
FBgn0051637
FBgn0051639
FBgn0051644
FBgn0051646
FBgn0051648
FBgn0051659
FBgn0051660
FBgn0051661
FBgn0051664
FBgn0051665
FBgn0051668
FBgn0051673
FBgn0051674
FBgn0051675
FBgn0051676
FBgn0051677
FBgn0051679
FBgn0051680
FBgn0051681
FBgn0051682
FBgn0051687
FBgn0051690
FBgn0051693
FBgn0051694
FBgn0051697
FBgn0051709
FBgn0051710
FBgn0051712
FBgn0051715
FBgn0051716
FBgn0051718
FBgn0051719
FBgn0051729
FBgn0051730
FBgn0051740
FBgn0051741
FBgn0051752
FBgn0051760
FBgn0051774
FBgn0051776
FBgn0051777
FBgn0051778
FBgn0051779
FBgn0051784
FBgn0051785
FBgn0051787
FBgn0051788
FBgn0051793
FBgn0051798
FBgn0051802
FBgn0051804
FBgn0051805
FBgn0051806
FBgn0051807
FBgn0051812
FBgn0051813
FBgn0051815
FBgn0051816
FBgn0051820
FBgn0051821
FBgn0051823
FBgn0051826
FBgn0051832
FBgn0051835
FBgn0051851
FBgn0051855
FBgn0051858
FBgn0051862
FBgn0051864
FBgn0051867
FBgn0051871
FBgn0051872
FBgn0051874
FBgn0051875
FBgn0051882
FBgn0051897
FBgn0051898
FBgn0051901
FBgn0051907
FBgn0051910
FBgn0051913
FBgn0051921
FBgn0051922
FBgn0051924
FBgn0051928
FBgn0051933
FBgn0051935
FBgn0051948
FBgn0051949
FBgn0051950
FBgn0051952
FBgn0051954
FBgn0051955
FBgn0051957
FBgn0051960
FBgn0051973
FBgn0051974
FBgn0051976
FBgn0051988
FBgn0051989
FBgn0051997
FBgn0052000
FBgn0052016
FBgn0052017
FBgn0052022
FBgn0052024
FBgn0052026
FBgn0052029
FBgn0052036
FBgn0052039
FBgn0052040
FBgn0052054
FBgn0052055
FBgn0052056
FBgn0052058
FBgn0052064
FBgn0052066
FBgn0052072
FBgn0052073
FBgn0052076
FBgn0052079
FBgn0052081
FBgn0052082
FBgn0052086
FBgn0052087
FBgn0052088
FBgn0052091
FBgn0052095
FBgn0052099
FBgn0052100
FBgn0052102
FBgn0052103
FBgn0052104
FBgn0052105
FBgn0052106
FBgn0052107
FBgn0052110
FBgn0052112
FBgn0052115
FBgn0052117
FBgn0052119
FBgn0052137
FBgn0052141
FBgn0052152
FBgn0052161
FBgn0052163
FBgn0052170
FBgn0052176
FBgn0052177
FBgn0052181
FBgn0052182
FBgn0052183
FBgn0052189
FBgn0052190
FBgn0052191
FBgn0052192
FBgn0052195
FBgn0052198
FBgn0052199
FBgn0052201
FBgn0052202
FBgn0052203
FBgn0052206
FBgn0052219
FBgn0052220
FBgn0052221
FBgn0052225
FBgn0052226
FBgn0052228
FBgn0052230
FBgn0052232
FBgn0052237
FBgn0052238
FBgn0052240
FBgn0052241
FBgn0052243
FBgn0052246
FBgn0052248
FBgn0052249
FBgn0052250
FBgn0052255
FBgn0052259
FBgn0052260
FBgn0052264
FBgn0052266
FBgn0052267
FBgn0052268
FBgn0052271
FBgn0052274
FBgn0052278
FBgn0052279
FBgn0052280
FBgn0052281
FBgn0052282
FBgn0052284
FBgn0052299
FBgn0052301
FBgn0052304
FBgn0052305
FBgn0052311
FBgn0052313
FBgn0052319
FBgn0052320
FBgn0052333
FBgn0052351
FBgn0052364
FBgn0052365
FBgn0052368
FBgn0052369
FBgn0052371
FBgn0052373
FBgn0052376
FBgn0052380
FBgn0052382
FBgn0052392
FBgn0052404
FBgn0052405
FBgn0052407
FBgn0052409
FBgn0052412
FBgn0052413
FBgn0052418
FBgn0052425
FBgn0052432
FBgn0052436
FBgn0052447
FBgn0052448
FBgn0052450
FBgn0052451
FBgn0052459
FBgn0052461
FBgn0052462
FBgn0052463
FBgn0052473
FBgn0052475
FBgn0052476
FBgn0052483
FBgn0052485
FBgn0052488
FBgn0052499
FBgn0052506
FBgn0052529
FBgn0052533
FBgn0052537
FBgn0052547
FBgn0052548
FBgn0052549
FBgn0052554
FBgn0052557
FBgn0052568
FBgn0052569
FBgn0052570
FBgn0052572
FBgn0052579
FBgn0052580
FBgn0052588
FBgn0052600
FBgn0052625
FBgn0052631
FBgn0052639
FBgn0052640
FBgn0052643
FBgn0052647
FBgn0052650
FBgn0052654
FBgn0052656
FBgn0052668
FBgn0052669
FBgn0052675
FBgn0052677
FBgn0052679
FBgn0052683
FBgn0052685
FBgn0052686
FBgn0052687
FBgn0052693
FBgn0052695
FBgn0052699
FBgn0052702
FBgn0052703
FBgn0052704
FBgn0052707
FBgn0052712
FBgn0052726
FBgn0052732
FBgn0052750
FBgn0052755
FBgn0052758
FBgn0052762
FBgn0052767
FBgn0052792
FBgn0052793
FBgn0052801
FBgn0052813
FBgn0052815
FBgn0052816
FBgn0052829
FBgn0052833
FBgn0052834
FBgn0052843
FBgn0052847
FBgn0052850
FBgn0052855
FBgn0052856
FBgn0052944
FBgn0052945
FBgn0052971
FBgn0052982
FBgn0052983
FBgn0052984
FBgn0052986
FBgn0052988
FBgn0053012
FBgn0053017
FBgn0053056
FBgn0053057
FBgn0053087
FBgn0053093
FBgn0053095
FBgn0053096
FBgn0053098
FBgn0053099
FBgn0053107
FBgn0053108
FBgn0053111
FBgn0053113
FBgn0053116
FBgn0053120
FBgn0053121
FBgn0053124
FBgn0053125
FBgn0053126
FBgn0053128
FBgn0053129
FBgn0053138
FBgn0053140
FBgn0053147
FBgn0053158
FBgn0053159
FBgn0053160
FBgn0053170
FBgn0053172
FBgn0053178
FBgn0053181
FBgn0053189
FBgn0053191
FBgn0053194
FBgn0053198
FBgn0053199
FBgn0053202
FBgn0053207
FBgn0053208
FBgn0053229
FBgn0053252
FBgn0053260
FBgn0053262
FBgn0053263
FBgn0053265
FBgn0053278
FBgn0053281
FBgn0053282
FBgn0053286
FBgn0053290
FBgn0053299
FBgn0053306
FBgn0053307
FBgn0053310
FBgn0053322
FBgn0053325
FBgn0053333
FBgn0053340
FBgn0053346
FBgn0053348
FBgn0053453
FBgn0053458
FBgn0053462
FBgn0053468
FBgn0053474
FBgn0053481
FBgn0053489
FBgn0053490
FBgn0053493
FBgn0053494
FBgn0053506
FBgn0053508
FBgn0053509
FBgn0053510
FBgn0053512
FBgn0053517
FBgn0053519
FBgn0053523
FBgn0053530
FBgn0053531
FBgn0053533
FBgn0053542
FBgn0053543
FBgn0053544
FBgn0053547
FBgn0053548
FBgn0053552
FBgn0053556
FBgn0053557
FBgn0053558
FBgn0053635
FBgn0053639
FBgn0053641
FBgn0053642
FBgn0053643
FBgn0053644
FBgn0053680
FBgn0053688
FBgn0053696
FBgn0053704
FBgn0053710
FBgn0053768
FBgn0053770
FBgn0053771
FBgn0053772
FBgn0053795
FBgn0053798
FBgn0053922
FBgn0053958
FBgn0053966
FBgn0053969
FBgn0053983
FBgn0053993
FBgn0054010
FBgn0054021
FBgn0054031
FBgn0054056
FBgn0058002
FBgn0058045
FBgn0061196
FBgn0061197
FBgn0061356
FBgn0061435
FBgn0061476
FBgn0062442
FBgn0062449
FBgn0063261
FBgn0063491
FBgn0063493
FBgn0063494
FBgn0063495
FBgn0063496
FBgn0063497
FBgn0063498
FBgn0063499
FBgn0063649
FBgn0064123
FBgn0064126
FBgn0064766
FBgn0065035
FBgn0065108
FBgn0065109
FBgn0065110
FBgn0066084
FBgn0066101
FBgn0066293
FBgn0066365
FBgn0067052
FBgn0067311
FBgn0067317
FBgn0067628
FBgn0067629
FBgn0082585
FBgn0083141
FBgn0083228
FBgn0083940
FBgn0083945
FBgn0083946
FBgn0083950
FBgn0083951
FBgn0083956
FBgn0083960
FBgn0083962
FBgn0083965
FBgn0083966
FBgn0083969
FBgn0083975
FBgn0083976
FBgn0083979
FBgn0083992
FBgn0085197
FBgn0085224
FBgn0085256
FBgn0085282
FBgn0085305
FBgn0085310
FBgn0085311
FBgn0085354
FBgn0085356
FBgn0085358
FBgn0085360
FBgn0085371
FBgn0085376
FBgn0085377
FBgn0085380
FBgn0085382
FBgn0085384
FBgn0085386
FBgn0085391
FBgn0085395
FBgn0085396
FBgn0085397
FBgn0085398
FBgn0085399
FBgn0085400
FBgn0085404
FBgn0085407
FBgn0085409
FBgn0085410
FBgn0085411
FBgn0085412
FBgn0085413
FBgn0085414
FBgn0085419
FBgn0085420
FBgn0085421
FBgn0085422
FBgn0085425
FBgn0085426
FBgn0085427
FBgn0085428
FBgn0085431
FBgn0085433
FBgn0085434
FBgn0085437
FBgn0085438
FBgn0085440
FBgn0085443
FBgn0085446
FBgn0085447
FBgn0085453
FBgn0085457
FBgn0085465
FBgn0085473
FBgn0085474
FBgn0085488
FBgn0085491
FBgn0086254
FBgn0086266
FBgn0086346
FBgn0086347
FBgn0086348
FBgn0086350
FBgn0086367
FBgn0086408
FBgn0086450
FBgn0086472
FBgn0086519
FBgn0086558
FBgn0086605
FBgn0086673
FBgn0086675
FBgn0086679
FBgn0086683
FBgn0086687
FBgn0086704
FBgn0086778
FBgn0086855
FBgn0086898
FBgn0086907
FBgn0086909
FBgn0086913
FBgn0087005
FBgn0087035
FBgn0087039
FBgn0243513
FBgn0243514
FBgn0243516
FBgn0250754
FBgn0250755
FBgn0250757
FBgn0250815
FBgn0250816
FBgn0250819
FBgn0250821
FBgn0250831
FBgn0250834
FBgn0250835
FBgn0250836
FBgn0250837
FBgn0250841
FBgn0250842
FBgn0250845
FBgn0250849
FBgn0250862
FBgn0250867
FBgn0250904
FBgn0250908
FBgn0250910
FBgn0259099
FBgn0259101
FBgn0259110
FBgn0259140
FBgn0259146
FBgn0259149
FBgn0259150
FBgn0259151
FBgn0259152
FBgn0259163
FBgn0259166
FBgn0259167
FBgn0259170
FBgn0259171
FBgn0259173
FBgn0259174
FBgn0259175
FBgn0259178
FBgn0259179
FBgn0259184
FBgn0259188
FBgn0259192
FBgn0259194
FBgn0259195
FBgn0259196
FBgn0259209
FBgn0259210
FBgn0259213
FBgn0259215
FBgn0259219
FBgn0259221
FBgn0259223
FBgn0259224
FBgn0259226
FBgn0259227
FBgn0259229
FBgn0259233
FBgn0259234
FBgn0259236
FBgn0259237
FBgn0259238
FBgn0259242
FBgn0259244
FBgn0259245
FBgn0259481
FBgn0259482
FBgn0259677
FBgn0259678
FBgn0259680
FBgn0259682
FBgn0259699
FBgn0259701
FBgn0259704
FBgn0259707
FBgn0259713
FBgn0259714
FBgn0259715
FBgn0259716
FBgn0259729
FBgn0259734
FBgn0259735
FBgn0259742
FBgn0259794
FBgn0259795
FBgn0259818
FBgn0259821
FBgn0259831
FBgn0259878
FBgn0259896
FBgn0259916
FBgn0259926
FBgn0259927
FBgn0259953
FBgn0259977
FBgn0259979
FBgn0259985
FBgn0259998
FBgn0260000
FBgn0260004
FBgn0260388
FBgn0260393
FBgn0260398
FBgn0260444
FBgn0260450
FBgn0260452
FBgn0260459
FBgn0260461
FBgn0260462
FBgn0260464
FBgn0260467
FBgn0260470
FBgn0260474
FBgn0260475
FBgn0260481
FBgn0260482
FBgn0260486
FBgn0260499
FBgn0260634
FBgn0260648
FBgn0260657
FBgn0260658
FBgn0260659
FBgn0260660
FBgn0260741
FBgn0260742
FBgn0260745
FBgn0260746
FBgn0260747
FBgn0260750
FBgn0260753
FBgn0260758
FBgn0260764
FBgn0260766
FBgn0260767
FBgn0260793
FBgn0260798
FBgn0260862
FBgn0260866
FBgn0260874
FBgn0260932
FBgn0260942
FBgn0260943
FBgn0260986
FBgn0261015
FBgn0261016
FBgn0261046
FBgn0261053
FBgn0261067
FBgn0261086
FBgn0261090
FBgn0261113
FBgn0261239
FBgn0261258
FBgn0261262
FBgn0261266
FBgn0261285
FBgn0261287
FBgn0261289
FBgn0261291
FBgn0261358
FBgn0261363
FBgn0261393
FBgn0261395
FBgn0261401
FBgn0261446
FBgn0261461
FBgn0261514
FBgn0261526
FBgn0261547
FBgn0261550
FBgn0261554
FBgn0261556
FBgn0261560
FBgn0261561
FBgn0261564
FBgn0261565
FBgn0261570
FBgn0261571
FBgn0261573
FBgn0261574
FBgn0261575
FBgn0261610
FBgn0261625
FBgn0261641
FBgn0261647
FBgn0261673
FBgn0261679
FBgn0261686
FBgn0261698
FBgn0261714
FBgn0261723
FBgn0261787
FBgn0261802
FBgn0261803
FBgn0261804
FBgn0261858
FBgn0261859
FBgn0261862
FBgn0261928
FBgn0261931
FBgn0261934
FBgn0261985
FBgn0261986
FBgn0261989
FBgn0261992
FBgn0261996
FBgn0261997
FBgn0261999
FBgn0262002
FBgn0262007
FBgn0262009
FBgn0262010
FBgn0262018
FBgn0262111
FBgn0262169
FBgn0262475
FBgn0262476
FBgn0262508
FBgn0262562
FBgn0262593
FBgn0262594
FBgn0262595
FBgn0262598
FBgn0262599
FBgn0262614
FBgn0262717
FBgn0262719
FBgn0262732
FBgn0262734
FBgn0262738
FBgn0262740
FBgn0262782
FBgn0262866
FBgn0262869
FBgn0262870
FBgn0263023
FBgn0263025
FBgn0263027
FBgn0263048
FBgn0263076
FBgn0263077
FBgn0263109
FBgn0263110
FBgn0263113
FBgn0263117
FBgn0263118
FBgn0263131
FBgn0263143
FBgn0263199
FBgn0263219
FBgn0263232
FBgn0263235
FBgn0263256
FBgn0263258
FBgn0263353
FBgn0263354
FBgn0263355
FBgn0263395
FBgn0263397
FBgn0263456
FBgn0263512
FBgn0263594
FBgn0263705
FBgn0263706
FBgn0263750
FBgn0263755
FBgn0263772
FBgn0263774
FBgn0263776
FBgn0263780
FBgn0263830
FBgn0263831
FBgn0263846
FBgn0263934
FBgn0263968
FBgn0263974
FBgn0263980
FBgn0263986
FBgn0263987
FBgn0263994
FBgn0264000
FBgn0264006
FBgn0264078
FBgn0264086
FBgn0264087
FBgn0264253
FBgn0264272
FBgn0264273
FBgn0264296
FBgn0264297
FBgn0264298
FBgn0264299
FBgn0264301
FBgn0264302
FBgn0264303
FBgn0264305
FBgn0264308
FBgn0264339
FBgn0264386
FBgn0264443
FBgn0264449
FBgn0264486
FBgn0264488
FBgn0264494
FBgn0264502
FBgn0264542
FBgn0264561
FBgn0264598
FBgn0264693
FBgn0264712
FBgn0264738
FBgn0264744
FBgn0264750
FBgn0264751
FBgn0264776
FBgn0264815
FBgn0264816
FBgn0264895
FBgn0264907
FBgn0264953
FBgn0264979
FBgn0265001
FBgn0265002
FBgn0265003
FBgn0265042
FBgn0265048
FBgn0265052
FBgn0265082
FBgn0265102
FBgn0265138
FBgn0265139
FBgn0265140
FBgn0265177
FBgn0265182
FBgn0265184
FBgn0265185
FBgn0265187
FBgn0265191
FBgn0265192
FBgn0265264
FBgn0265265
FBgn0265267
FBgn0265268
FBgn0265269
FBgn0265271
FBgn0265272
FBgn0265274
FBgn0265298
FBgn0265413
FBgn0265464
FBgn0265512
FBgn0265575
FBgn0265605
FBgn0265607
FBgn0265626
FBgn0265627
FBgn0265959
FBgn0265988
FBgn0266000
FBgn0266019
FBgn0266099
FBgn0266101
FBgn0266111
FBgn0266124
FBgn0266129
FBgn0266137
FBgn0266377
FBgn0266409
FBgn0266420
FBgn0266429
FBgn0266430
FBgn0266435
FBgn0266437
FBgn0266439
FBgn0266442
FBgn0266449
FBgn0266465
FBgn0266566
FBgn0266570
FBgn0266579
FBgn0266667
FBgn0266696
FBgn0266709
FBgn0266710
FBgn0266717
FBgn0266720
FBgn0266721
FBgn0266722
FBgn0266757
FBgn0266758
FBgn0266801
FBgn0267001
FBgn0267252
FBgn0267253
FBgn0267327
FBgn0267337
FBgn0267351
FBgn0267363
FBgn0267366
FBgn0267431
FBgn0267432
FBgn0267433
FBgn0267435
FBgn0267486
FBgn0267487
FBgn0267689
FBgn0267690
FBgn0267727
FBgn0267792
